{"@t":"2020-08-02T07:51:32.9711961Z","@mt":"Scheduled health check results:","SourceContext":"Umbraco.Web.HealthCheck.HealthCheckResults","ProcessId":24948,"ProcessName":"iisexpress","ThreadId":46,"AppDomainId":2,"AppDomainAppId":"LMW3SVC2ROOT","MachineName":"ANNA","Log4NetLevel":"INFO "}
{"@t":"2020-08-02T07:51:32.9711961Z","@mt":"Checks for '{HealthCheckName}' all completed successfully.","HealthCheckName":"Folder & File Permissions","SourceContext":"Umbraco.Web.HealthCheck.HealthCheckResults","ProcessId":24948,"ProcessName":"iisexpress","ThreadId":46,"AppDomainId":2,"AppDomainAppId":"LMW3SVC2ROOT","MachineName":"ANNA","Log4NetLevel":"INFO "}
{"@t":"2020-08-02T07:51:32.9711961Z","@mt":"Result for {HealthCheckName}: {HealthCheckResult}, Message: '{HealthCheckMessage}'","HealthCheckName":"Folder & File Permissions","HealthCheckResult":"Success","HealthCheckMessage":"All folders have the correct permissions set.","SourceContext":"Umbraco.Web.HealthCheck.HealthCheckResults","ProcessId":24948,"ProcessName":"iisexpress","ThreadId":46,"AppDomainId":2,"AppDomainAppId":"LMW3SVC2ROOT","MachineName":"ANNA","Log4NetLevel":"INFO "}
{"@t":"2020-08-02T07:51:32.9711961Z","@mt":"Result for {HealthCheckName}: {HealthCheckResult}, Message: '{HealthCheckMessage}'","HealthCheckName":"Folder & File Permissions","HealthCheckResult":"Success","HealthCheckMessage":"All files have the correct permissions set.","SourceContext":"Umbraco.Web.HealthCheck.HealthCheckResults","ProcessId":24948,"ProcessName":"iisexpress","ThreadId":46,"AppDomainId":2,"AppDomainAppId":"LMW3SVC2ROOT","MachineName":"ANNA","Log4NetLevel":"INFO "}
{"@t":"2020-08-02T07:51:32.9711961Z","@mt":"Checks for '{HealthCheckName}' all completed successfully.","HealthCheckName":"SMTP Settings","SourceContext":"Umbraco.Web.HealthCheck.HealthCheckResults","ProcessId":24948,"ProcessName":"iisexpress","ThreadId":46,"AppDomainId":2,"AppDomainAppId":"LMW3SVC2ROOT","MachineName":"ANNA","Log4NetLevel":"INFO "}
{"@t":"2020-08-02T07:51:32.9711961Z","@mt":"Result for {HealthCheckName}: {HealthCheckResult}, Message: '{HealthCheckMessage}'","HealthCheckName":"SMTP Settings","HealthCheckResult":"Success","HealthCheckMessage":"SMTP settings are configured correctly and the service is operating as expected.","SourceContext":"Umbraco.Web.HealthCheck.HealthCheckResults","ProcessId":24948,"ProcessName":"iisexpress","ThreadId":46,"AppDomainId":2,"AppDomainAppId":"LMW3SVC2ROOT","MachineName":"ANNA","Log4NetLevel":"INFO "}
{"@t":"2020-08-02T07:51:32.9711961Z","@mt":"Checks for '{HealthCheckName}' completed with errors.","@l":"Warning","HealthCheckName":"Macro errors","SourceContext":"Umbraco.Web.HealthCheck.HealthCheckResults","ProcessId":24948,"ProcessName":"iisexpress","ThreadId":46,"AppDomainId":2,"AppDomainAppId":"LMW3SVC2ROOT","MachineName":"ANNA","Log4NetLevel":"WARN "}
{"@t":"2020-08-02T07:51:32.9711961Z","@mt":"Result for {HealthCheckName}: {HealthCheckResult}, Message: '{HealthCheckMessage}'","HealthCheckName":"Macro errors","HealthCheckResult":"Error","HealthCheckMessage":"MacroErrors are set to 'throw' which will prevent some or all pages in your site from loading completely if there are any errors in macros. Rectifying this will set the value to 'inline'.","SourceContext":"Umbraco.Web.HealthCheck.HealthCheckResults","ProcessId":24948,"ProcessName":"iisexpress","ThreadId":46,"AppDomainId":2,"AppDomainAppId":"LMW3SVC2ROOT","MachineName":"ANNA","Log4NetLevel":"INFO "}
{"@t":"2020-08-02T07:51:32.9711961Z","@mt":"Checks for '{HealthCheckName}' all completed successfully.","HealthCheckName":"Notification Email Settings","SourceContext":"Umbraco.Web.HealthCheck.HealthCheckResults","ProcessId":24948,"ProcessName":"iisexpress","ThreadId":46,"AppDomainId":2,"AppDomainAppId":"LMW3SVC2ROOT","MachineName":"ANNA","Log4NetLevel":"INFO "}
{"@t":"2020-08-02T07:51:32.9711961Z","@mt":"Result for {HealthCheckName}: {HealthCheckResult}, Message: '{HealthCheckMessage}'","HealthCheckName":"Notification Email Settings","HealthCheckResult":"Success","HealthCheckMessage":"Notification email has been set to <strong>ah@incyan.com</strong>.","SourceContext":"Umbraco.Web.HealthCheck.HealthCheckResults","ProcessId":24948,"ProcessName":"iisexpress","ThreadId":46,"AppDomainId":2,"AppDomainAppId":"LMW3SVC2ROOT","MachineName":"ANNA","Log4NetLevel":"INFO "}
{"@t":"2020-08-02T07:51:32.9711961Z","@mt":"Checks for '{HealthCheckName}' all completed successfully.","HealthCheckName":"Try Skip IIS Custom Errors","SourceContext":"Umbraco.Web.HealthCheck.HealthCheckResults","ProcessId":24948,"ProcessName":"iisexpress","ThreadId":46,"AppDomainId":2,"AppDomainAppId":"LMW3SVC2ROOT","MachineName":"ANNA","Log4NetLevel":"INFO "}
{"@t":"2020-08-02T07:51:32.9711961Z","@mt":"Result for {HealthCheckName}: {HealthCheckResult}, Message: '{HealthCheckMessage}'","HealthCheckName":"Try Skip IIS Custom Errors","HealthCheckResult":"Success","HealthCheckMessage":"Try Skip IIS Custom Errors is set to 'true' and you're using IIS version '10.0'.","SourceContext":"Umbraco.Web.HealthCheck.HealthCheckResults","ProcessId":24948,"ProcessName":"iisexpress","ThreadId":46,"AppDomainId":2,"AppDomainAppId":"LMW3SVC2ROOT","MachineName":"ANNA","Log4NetLevel":"INFO "}
{"@t":"2020-08-02T07:51:32.9711961Z","@mt":"Checks for '{HealthCheckName}' all completed successfully.","HealthCheckName":"Custom Errors","SourceContext":"Umbraco.Web.HealthCheck.HealthCheckResults","ProcessId":24948,"ProcessName":"iisexpress","ThreadId":46,"AppDomainId":2,"AppDomainAppId":"LMW3SVC2ROOT","MachineName":"ANNA","Log4NetLevel":"INFO "}
{"@t":"2020-08-02T07:51:32.9711961Z","@mt":"Result for {HealthCheckName}: {HealthCheckResult}, Message: '{HealthCheckMessage}'","HealthCheckName":"Custom Errors","HealthCheckResult":"Success","HealthCheckMessage":"Custom errors are set to 'On'.","SourceContext":"Umbraco.Web.HealthCheck.HealthCheckResults","ProcessId":24948,"ProcessName":"iisexpress","ThreadId":46,"AppDomainId":2,"AppDomainAppId":"LMW3SVC2ROOT","MachineName":"ANNA","Log4NetLevel":"INFO "}
{"@t":"2020-08-02T07:51:32.9711961Z","@mt":"Checks for '{HealthCheckName}' all completed successfully.","HealthCheckName":"Trace Mode","SourceContext":"Umbraco.Web.HealthCheck.HealthCheckResults","ProcessId":24948,"ProcessName":"iisexpress","ThreadId":46,"AppDomainId":2,"AppDomainAppId":"LMW3SVC2ROOT","MachineName":"ANNA","Log4NetLevel":"INFO "}
{"@t":"2020-08-02T07:51:32.9711961Z","@mt":"Result for {HealthCheckName}: {HealthCheckResult}, Message: '{HealthCheckMessage}'","HealthCheckName":"Trace Mode","HealthCheckResult":"Success","HealthCheckMessage":"Trace mode is disabled.","SourceContext":"Umbraco.Web.HealthCheck.HealthCheckResults","ProcessId":24948,"ProcessName":"iisexpress","ThreadId":46,"AppDomainId":2,"AppDomainAppId":"LMW3SVC2ROOT","MachineName":"ANNA","Log4NetLevel":"INFO "}
{"@t":"2020-08-02T07:51:32.9711961Z","@mt":"Checks for '{HealthCheckName}' completed with errors.","@l":"Warning","HealthCheckName":"Debug Compilation Mode","SourceContext":"Umbraco.Web.HealthCheck.HealthCheckResults","ProcessId":24948,"ProcessName":"iisexpress","ThreadId":46,"AppDomainId":2,"AppDomainAppId":"LMW3SVC2ROOT","MachineName":"ANNA","Log4NetLevel":"WARN "}
{"@t":"2020-08-02T07:51:32.9711961Z","@mt":"Result for {HealthCheckName}: {HealthCheckResult}, Message: '{HealthCheckMessage}'","HealthCheckName":"Debug Compilation Mode","HealthCheckResult":"Error","HealthCheckMessage":"Debug compilation mode is currently enabled. It is recommended to disable this setting before go live.","SourceContext":"Umbraco.Web.HealthCheck.HealthCheckResults","ProcessId":24948,"ProcessName":"iisexpress","ThreadId":46,"AppDomainId":2,"AppDomainAppId":"LMW3SVC2ROOT","MachineName":"ANNA","Log4NetLevel":"INFO "}
{"@t":"2020-08-02T07:51:32.9711961Z","@mt":"Checks for '{HealthCheckName}' completed with errors.","@l":"Warning","HealthCheckName":"Cross-site scripting Protection (X-XSS-Protection header)","SourceContext":"Umbraco.Web.HealthCheck.HealthCheckResults","ProcessId":24948,"ProcessName":"iisexpress","ThreadId":46,"AppDomainId":2,"AppDomainAppId":"LMW3SVC2ROOT","MachineName":"ANNA","Log4NetLevel":"WARN "}
{"@t":"2020-08-02T07:51:32.9711961Z","@mt":"Result for {HealthCheckName}: {HealthCheckResult}, Message: '{HealthCheckMessage}'","HealthCheckName":"Cross-site scripting Protection (X-XSS-Protection header)","HealthCheckResult":"Error","HealthCheckMessage":"Error pinging the URL http://localhost/umbraco - 'The remote server returned an error: (404) Not Found.'","SourceContext":"Umbraco.Web.HealthCheck.HealthCheckResults","ProcessId":24948,"ProcessName":"iisexpress","ThreadId":46,"AppDomainId":2,"AppDomainAppId":"LMW3SVC2ROOT","MachineName":"ANNA","Log4NetLevel":"INFO "}
{"@t":"2020-08-02T07:51:32.9711961Z","@mt":"Checks for '{HealthCheckName}' completed with errors.","@l":"Warning","HealthCheckName":"Cookie hijacking and protocol downgrade attacks Protection (Strict-Transport-Security Header (HSTS))","SourceContext":"Umbraco.Web.HealthCheck.HealthCheckResults","ProcessId":24948,"ProcessName":"iisexpress","ThreadId":46,"AppDomainId":2,"AppDomainAppId":"LMW3SVC2ROOT","MachineName":"ANNA","Log4NetLevel":"WARN "}
{"@t":"2020-08-02T07:51:32.9711961Z","@mt":"Result for {HealthCheckName}: {HealthCheckResult}, Message: '{HealthCheckMessage}'","HealthCheckName":"Cookie hijacking and protocol downgrade attacks Protection (Strict-Transport-Security Header (HSTS))","HealthCheckResult":"Error","HealthCheckMessage":"Error pinging the URL http://localhost/umbraco - 'The remote server returned an error: (404) Not Found.'","SourceContext":"Umbraco.Web.HealthCheck.HealthCheckResults","ProcessId":24948,"ProcessName":"iisexpress","ThreadId":46,"AppDomainId":2,"AppDomainAppId":"LMW3SVC2ROOT","MachineName":"ANNA","Log4NetLevel":"INFO "}
{"@t":"2020-08-02T07:51:32.9711961Z","@mt":"Checks for '{HealthCheckName}' completed with errors.","@l":"Warning","HealthCheckName":"Content/MIME Sniffing Protection","SourceContext":"Umbraco.Web.HealthCheck.HealthCheckResults","ProcessId":24948,"ProcessName":"iisexpress","ThreadId":46,"AppDomainId":2,"AppDomainAppId":"LMW3SVC2ROOT","MachineName":"ANNA","Log4NetLevel":"WARN "}
{"@t":"2020-08-02T07:51:32.9711961Z","@mt":"Result for {HealthCheckName}: {HealthCheckResult}, Message: '{HealthCheckMessage}'","HealthCheckName":"Content/MIME Sniffing Protection","HealthCheckResult":"Error","HealthCheckMessage":"Error pinging the URL http://localhost/umbraco - 'The remote server returned an error: (404) Not Found.'","SourceContext":"Umbraco.Web.HealthCheck.HealthCheckResults","ProcessId":24948,"ProcessName":"iisexpress","ThreadId":46,"AppDomainId":2,"AppDomainAppId":"LMW3SVC2ROOT","MachineName":"ANNA","Log4NetLevel":"INFO "}
{"@t":"2020-08-02T07:51:32.9711961Z","@mt":"Checks for '{HealthCheckName}' completed with errors.","@l":"Warning","HealthCheckName":"Excessive Headers","SourceContext":"Umbraco.Web.HealthCheck.HealthCheckResults","ProcessId":24948,"ProcessName":"iisexpress","ThreadId":46,"AppDomainId":2,"AppDomainAppId":"LMW3SVC2ROOT","MachineName":"ANNA","Log4NetLevel":"WARN "}
{"@t":"2020-08-02T07:51:32.9711961Z","@mt":"Result for {HealthCheckName}: {HealthCheckResult}, Message: '{HealthCheckMessage}'","HealthCheckName":"Excessive Headers","HealthCheckResult":"Warning","HealthCheckMessage":"[httpsCheckInvalidUrl]","SourceContext":"Umbraco.Web.HealthCheck.HealthCheckResults","ProcessId":24948,"ProcessName":"iisexpress","ThreadId":46,"AppDomainId":2,"AppDomainAppId":"LMW3SVC2ROOT","MachineName":"ANNA","Log4NetLevel":"INFO "}
{"@t":"2020-08-02T07:51:32.9711961Z","@mt":"Checks for '{HealthCheckName}' completed with errors.","@l":"Warning","HealthCheckName":"Click-Jacking Protection","SourceContext":"Umbraco.Web.HealthCheck.HealthCheckResults","ProcessId":24948,"ProcessName":"iisexpress","ThreadId":46,"AppDomainId":2,"AppDomainAppId":"LMW3SVC2ROOT","MachineName":"ANNA","Log4NetLevel":"WARN "}
{"@t":"2020-08-02T07:51:32.9711961Z","@mt":"Result for {HealthCheckName}: {HealthCheckResult}, Message: '{HealthCheckMessage}'","HealthCheckName":"Click-Jacking Protection","HealthCheckResult":"Error","HealthCheckMessage":"Error pinging the URL http://localhost/umbraco - 'The remote server returned an error: (404) Not Found.'","SourceContext":"Umbraco.Web.HealthCheck.HealthCheckResults","ProcessId":24948,"ProcessName":"iisexpress","ThreadId":46,"AppDomainId":2,"AppDomainAppId":"LMW3SVC2ROOT","MachineName":"ANNA","Log4NetLevel":"INFO "}
{"@t":"2020-08-02T07:51:32.9711961Z","@mt":"Checks for '{HealthCheckName}' completed with errors.","@l":"Warning","HealthCheckName":"HTTPS Configuration","SourceContext":"Umbraco.Web.HealthCheck.HealthCheckResults","ProcessId":24948,"ProcessName":"iisexpress","ThreadId":46,"AppDomainId":2,"AppDomainAppId":"LMW3SVC2ROOT","MachineName":"ANNA","Log4NetLevel":"WARN "}
{"@t":"2020-08-02T07:51:32.9711961Z","@mt":"Result for {HealthCheckName}: {HealthCheckResult}, Message: '{HealthCheckMessage}'","HealthCheckName":"HTTPS Configuration","HealthCheckResult":"Error","HealthCheckMessage":"You are currently not viewing the site using the HTTPS scheme.","SourceContext":"Umbraco.Web.HealthCheck.HealthCheckResults","ProcessId":24948,"ProcessName":"iisexpress","ThreadId":46,"AppDomainId":2,"AppDomainAppId":"LMW3SVC2ROOT","MachineName":"ANNA","Log4NetLevel":"INFO "}
{"@t":"2020-08-02T07:51:32.9711961Z","@mt":"Result for {HealthCheckName}: {HealthCheckResult}, Message: '{HealthCheckMessage}'","HealthCheckName":"HTTPS Configuration","HealthCheckResult":"Info","HealthCheckMessage":"The appSetting 'Umbraco.Core.UseHttps' is set to 'false' in your web.config file. Once you access this site using the HTTPS scheme, that should be set to 'true'.","SourceContext":"Umbraco.Web.HealthCheck.HealthCheckResults","ProcessId":24948,"ProcessName":"iisexpress","ThreadId":46,"AppDomainId":2,"AppDomainAppId":"LMW3SVC2ROOT","MachineName":"ANNA","Log4NetLevel":"INFO "}
{"@t":"2020-08-02T07:51:32.9711961Z","@mt":"Result for {HealthCheckName}: {HealthCheckResult}, Message: '{HealthCheckMessage}'","HealthCheckName":"HTTPS Configuration","HealthCheckResult":"Error","HealthCheckMessage":"Certificate validation error: 'The underlying connection was closed: Could not establish trust relationship for the SSL/TLS secure channel.'","SourceContext":"Umbraco.Web.HealthCheck.HealthCheckResults","ProcessId":24948,"ProcessName":"iisexpress","ThreadId":46,"AppDomainId":2,"AppDomainAppId":"LMW3SVC2ROOT","MachineName":"ANNA","Log4NetLevel":"INFO "}
