{"@t":"2020-07-31T06:09:54.1974246Z","@mt":"Document {ContentName} (id={ContentId}) has been published.","ContentName":"Title","ContentId":2634,"SourceContext":"Umbraco.Core.Services.Implement.ContentService","ProcessId":24948,"ProcessName":"iisexpress","ThreadId":90,"AppDomainId":2,"AppDomainAppId":"LMW3SVC2ROOT","MachineName":"ANNA","Log4NetLevel":"INFO ","HttpRequestNumber":456,"HttpRequestId":"0181658d-4d4e-4327-b65c-bb5d8d910fe8"}
{"@t":"2020-07-31T06:10:27.8881408Z","@mt":"Document {ContentName} (id={ContentId}) has been published.","ContentName":"Title","ContentId":2535,"SourceContext":"Umbraco.Core.Services.Implement.ContentService","ProcessId":24948,"ProcessName":"iisexpress","ThreadId":39,"AppDomainId":2,"AppDomainAppId":"LMW3SVC2ROOT","MachineName":"ANNA","Log4NetLevel":"INFO ","HttpRequestNumber":457,"HttpRequestId":"68a3eea9-ea50-4e94-97b6-72ba32dc8dc6"}
{"@t":"2020-07-31T06:10:37.2800796Z","@mt":"Document {ContentName} (id={ContentId}) has been published.","ContentName":"Title","ContentId":2634,"SourceContext":"Umbraco.Core.Services.Implement.ContentService","ProcessId":24948,"ProcessName":"iisexpress","ThreadId":90,"AppDomainId":2,"AppDomainAppId":"LMW3SVC2ROOT","MachineName":"ANNA","Log4NetLevel":"INFO ","HttpRequestNumber":458,"HttpRequestId":"aa460d3e-325c-4d97-b6b8-bbaa5ccb19fd"}
{"@t":"2020-07-31T06:10:57.4680071Z","@mt":"Document {ContentName} (id={ContentId}) has been published.","ContentName":"Title","ContentId":2543,"SourceContext":"Umbraco.Core.Services.Implement.ContentService","ProcessId":24948,"ProcessName":"iisexpress","ThreadId":31,"AppDomainId":2,"AppDomainAppId":"LMW3SVC2ROOT","MachineName":"ANNA","Log4NetLevel":"INFO ","HttpRequestNumber":459,"HttpRequestId":"20e5bd17-f3a0-4c05-83f0-4fdedbacedb3"}
{"@t":"2020-07-31T06:17:39.6355967Z","@mt":"Document {ContentName} (id={ContentId}) has been published.","ContentName":"Top Part","ContentId":2635,"SourceContext":"Umbraco.Core.Services.Implement.ContentService","ProcessId":24948,"ProcessName":"iisexpress","ThreadId":90,"AppDomainId":2,"AppDomainAppId":"LMW3SVC2ROOT","MachineName":"ANNA","Log4NetLevel":"INFO ","HttpRequestNumber":460,"HttpRequestId":"2ea00e54-a0c5-4b63-917b-bf555069a3e8"}
{"@t":"2020-07-31T06:17:42.8263236Z","@mt":"Document {ContentName} (id={ContentId}) has been published.","ContentName":"Links","ContentId":2636,"SourceContext":"Umbraco.Core.Services.Implement.ContentService","ProcessId":24948,"ProcessName":"iisexpress","ThreadId":8,"AppDomainId":2,"AppDomainAppId":"LMW3SVC2ROOT","MachineName":"ANNA","Log4NetLevel":"INFO ","HttpRequestNumber":461,"HttpRequestId":"a1163f89-779c-447a-999a-360f8318805b"}
{"@t":"2020-07-31T06:17:45.3779206Z","@mt":"Document {ContentName} (id={ContentId}) has been published.","ContentName":"Section 1","ContentId":2637,"SourceContext":"Umbraco.Core.Services.Implement.ContentService","ProcessId":24948,"ProcessName":"iisexpress","ThreadId":68,"AppDomainId":2,"AppDomainAppId":"LMW3SVC2ROOT","MachineName":"ANNA","Log4NetLevel":"INFO ","HttpRequestNumber":462,"HttpRequestId":"c2b0a686-cb75-46b3-8d4f-991c029ea96e"}
{"@t":"2020-07-31T06:17:48.6021679Z","@mt":"Document {ContentName} (id={ContentId}) has been published.","ContentName":"Gallary","ContentId":2638,"SourceContext":"Umbraco.Core.Services.Implement.ContentService","ProcessId":24948,"ProcessName":"iisexpress","ThreadId":36,"AppDomainId":2,"AppDomainAppId":"LMW3SVC2ROOT","MachineName":"ANNA","Log4NetLevel":"INFO ","HttpRequestNumber":463,"HttpRequestId":"60130096-9958-4033-a64c-9daa956103ac"}
{"@t":"2020-07-31T06:17:51.4000175Z","@mt":"Document {ContentName} (id={ContentId}) has been published.","ContentName":"Prayer Room Text","ContentId":2639,"SourceContext":"Umbraco.Core.Services.Implement.ContentService","ProcessId":24948,"ProcessName":"iisexpress","ThreadId":72,"AppDomainId":2,"AppDomainAppId":"LMW3SVC2ROOT","MachineName":"ANNA","Log4NetLevel":"INFO ","HttpRequestNumber":464,"HttpRequestId":"d54cb7a4-42c0-4897-8fdb-e10290e86846"}
{"@t":"2020-07-31T06:18:37.5735634Z","@mt":"Document {ContentName} (id={ContentId}) has been published.","ContentName":"Pray For School","ContentId":1492,"SourceContext":"Umbraco.Core.Services.Implement.ContentService","ProcessId":24948,"ProcessName":"iisexpress","ThreadId":90,"AppDomainId":2,"AppDomainAppId":"LMW3SVC2ROOT","MachineName":"ANNA","Log4NetLevel":"INFO ","HttpRequestNumber":465,"HttpRequestId":"709a0d74-e191-481d-ac68-29fe62e0eb42"}
{"@t":"2020-07-31T06:18:37.9717841Z","@mt":"Document {ContentName} (id={ContentId}) has been published.","ContentName":"Components","ContentId":1493,"SourceContext":"Umbraco.Core.Services.Implement.ContentService","ProcessId":24948,"ProcessName":"iisexpress","ThreadId":90,"AppDomainId":2,"AppDomainAppId":"LMW3SVC2ROOT","MachineName":"ANNA","Log4NetLevel":"INFO ","HttpRequestNumber":465,"HttpRequestId":"709a0d74-e191-481d-ac68-29fe62e0eb42"}
{"@t":"2020-07-31T06:22:58.0636121Z","@mt":"Document {ContentName} (id={ContentId}) has been published.","ContentName":"Top Part","ContentId":2640,"SourceContext":"Umbraco.Core.Services.Implement.ContentService","ProcessId":24948,"ProcessName":"iisexpress","ThreadId":48,"AppDomainId":2,"AppDomainAppId":"LMW3SVC2ROOT","MachineName":"ANNA","Log4NetLevel":"INFO ","HttpRequestNumber":466,"HttpRequestId":"348c5f5f-d534-4aa1-90a9-29f21e794d41"}
{"@t":"2020-07-31T06:23:00.9733031Z","@mt":"Document {ContentName} (id={ContentId}) has been published.","ContentName":"Links","ContentId":2641,"SourceContext":"Umbraco.Core.Services.Implement.ContentService","ProcessId":24948,"ProcessName":"iisexpress","ThreadId":68,"AppDomainId":2,"AppDomainAppId":"LMW3SVC2ROOT","MachineName":"ANNA","Log4NetLevel":"INFO ","HttpRequestNumber":467,"HttpRequestId":"e3254f3c-394b-4427-8b05-0d90a420f77f"}
{"@t":"2020-07-31T06:23:02.6727565Z","@mt":"Document {ContentName} (id={ContentId}) has been published.","ContentName":"Section 1","ContentId":2642,"SourceContext":"Umbraco.Core.Services.Implement.ContentService","ProcessId":24948,"ProcessName":"iisexpress","ThreadId":68,"AppDomainId":2,"AppDomainAppId":"LMW3SVC2ROOT","MachineName":"ANNA","Log4NetLevel":"INFO ","HttpRequestNumber":468,"HttpRequestId":"5d141988-df44-40ee-99f2-cf9560c5f370"}
{"@t":"2020-07-31T06:23:05.5864657Z","@mt":"Document {ContentName} (id={ContentId}) has been published.","ContentName":"Gallary","ContentId":2643,"SourceContext":"Umbraco.Core.Services.Implement.ContentService","ProcessId":24948,"ProcessName":"iisexpress","ThreadId":35,"AppDomainId":2,"AppDomainAppId":"LMW3SVC2ROOT","MachineName":"ANNA","Log4NetLevel":"INFO ","HttpRequestNumber":469,"HttpRequestId":"684662bc-0d23-41b5-af61-f403db0b06b1"}
{"@t":"2020-07-31T06:23:08.3126071Z","@mt":"Document {ContentName} (id={ContentId}) has been published.","ContentName":"Prayer Room Text","ContentId":2644,"SourceContext":"Umbraco.Core.Services.Implement.ContentService","ProcessId":24948,"ProcessName":"iisexpress","ThreadId":54,"AppDomainId":2,"AppDomainAppId":"LMW3SVC2ROOT","MachineName":"ANNA","Log4NetLevel":"INFO ","HttpRequestNumber":470,"HttpRequestId":"8519544b-9738-4524-addb-4c2fb6bce2fd"}
{"@t":"2020-07-31T06:23:11.1914801Z","@mt":"Document {ContentName} (id={ContentId}) has been published.","ContentName":"Top Part","ContentId":2645,"SourceContext":"Umbraco.Core.Services.Implement.ContentService","ProcessId":24948,"ProcessName":"iisexpress","ThreadId":111,"AppDomainId":2,"AppDomainAppId":"LMW3SVC2ROOT","MachineName":"ANNA","Log4NetLevel":"INFO ","HttpRequestNumber":471,"HttpRequestId":"120b14e7-06ce-4b0b-9988-ec354bffa869"}
{"@t":"2020-07-31T06:23:13.8307728Z","@mt":"Document {ContentName} (id={ContentId}) has been published.","ContentName":"Links","ContentId":2646,"SourceContext":"Umbraco.Core.Services.Implement.ContentService","ProcessId":24948,"ProcessName":"iisexpress","ThreadId":35,"AppDomainId":2,"AppDomainAppId":"LMW3SVC2ROOT","MachineName":"ANNA","Log4NetLevel":"INFO ","HttpRequestNumber":472,"HttpRequestId":"61d833a3-7050-4f69-915e-858ec4e0eac4"}
{"@t":"2020-07-31T06:23:16.7915899Z","@mt":"Document {ContentName} (id={ContentId}) has been published.","ContentName":"Section 1","ContentId":2647,"SourceContext":"Umbraco.Core.Services.Implement.ContentService","ProcessId":24948,"ProcessName":"iisexpress","ThreadId":75,"AppDomainId":2,"AppDomainAppId":"LMW3SVC2ROOT","MachineName":"ANNA","Log4NetLevel":"INFO ","HttpRequestNumber":473,"HttpRequestId":"1081f2f8-60e7-474a-9d09-5550c9b4ce6d"}
{"@t":"2020-07-31T06:23:19.5791709Z","@mt":"Document {ContentName} (id={ContentId}) has been published.","ContentName":"Gallary","ContentId":2648,"SourceContext":"Umbraco.Core.Services.Implement.ContentService","ProcessId":24948,"ProcessName":"iisexpress","ThreadId":77,"AppDomainId":2,"AppDomainAppId":"LMW3SVC2ROOT","MachineName":"ANNA","Log4NetLevel":"INFO ","HttpRequestNumber":474,"HttpRequestId":"beae512c-5bd2-4bac-b900-d6d6ba6e933d"}
{"@t":"2020-07-31T06:23:22.9267099Z","@mt":"Document {ContentName} (id={ContentId}) has been published.","ContentName":"Prayer Room Text","ContentId":2649,"SourceContext":"Umbraco.Core.Services.Implement.ContentService","ProcessId":24948,"ProcessName":"iisexpress","ThreadId":111,"AppDomainId":2,"AppDomainAppId":"LMW3SVC2ROOT","MachineName":"ANNA","Log4NetLevel":"INFO ","HttpRequestNumber":475,"HttpRequestId":"2c702f8b-3055-4e81-b483-5453e736d6a0"}
{"@t":"2020-07-31T06:24:56.2139597Z","@mt":"Document {ContentName} (id={ContentId}) has been published.","ContentName":"Pray For Council","ContentId":2533,"SourceContext":"Umbraco.Core.Services.Implement.ContentService","ProcessId":24948,"ProcessName":"iisexpress","ThreadId":16,"AppDomainId":2,"AppDomainAppId":"LMW3SVC2ROOT","MachineName":"ANNA","Log4NetLevel":"INFO ","HttpRequestNumber":476,"HttpRequestId":"509669bd-ab76-4b2b-97bc-557ac4982d1c"}
{"@t":"2020-07-31T06:24:56.3662457Z","@mt":"Document {ContentName} (id={ContentId}) has been published.","ContentName":"Components","ContentId":2534,"SourceContext":"Umbraco.Core.Services.Implement.ContentService","ProcessId":24948,"ProcessName":"iisexpress","ThreadId":16,"AppDomainId":2,"AppDomainAppId":"LMW3SVC2ROOT","MachineName":"ANNA","Log4NetLevel":"INFO ","HttpRequestNumber":476,"HttpRequestId":"509669bd-ab76-4b2b-97bc-557ac4982d1c"}
{"@t":"2020-07-31T06:25:03.3599560Z","@mt":"Document {ContentName} (id={ContentId}) has been published.","ContentName":"Pray For Businesses","ContentId":2541,"SourceContext":"Umbraco.Core.Services.Implement.ContentService","ProcessId":24948,"ProcessName":"iisexpress","ThreadId":39,"AppDomainId":2,"AppDomainAppId":"LMW3SVC2ROOT","MachineName":"ANNA","Log4NetLevel":"INFO ","HttpRequestNumber":477,"HttpRequestId":"78f94655-4c88-47b4-bcff-b404db935d34"}
{"@t":"2020-07-31T06:25:03.5414720Z","@mt":"Document {ContentName} (id={ContentId}) has been published.","ContentName":"Components","ContentId":2542,"SourceContext":"Umbraco.Core.Services.Implement.ContentService","ProcessId":24948,"ProcessName":"iisexpress","ThreadId":39,"AppDomainId":2,"AppDomainAppId":"LMW3SVC2ROOT","MachineName":"ANNA","Log4NetLevel":"INFO ","HttpRequestNumber":477,"HttpRequestId":"78f94655-4c88-47b4-bcff-b404db935d34"}
{"@t":"2020-07-31T06:34:41.9533995Z","@mt":"Document {ContentName} (id={ContentId}) has been published.","ContentName":"Links","ContentId":2588,"SourceContext":"Umbraco.Core.Services.Implement.ContentService","ProcessId":24948,"ProcessName":"iisexpress","ThreadId":72,"AppDomainId":2,"AppDomainAppId":"LMW3SVC2ROOT","MachineName":"ANNA","Log4NetLevel":"INFO ","HttpRequestNumber":478,"HttpRequestId":"b3407595-6c07-4a61-9516-6157611acd63"}
{"@t":"2020-07-31T06:36:50.8755879Z","@mt":"Document {ContentName} (id={ContentId}) has been published.","ContentName":"Links","ContentId":2588,"SourceContext":"Umbraco.Core.Services.Implement.ContentService","ProcessId":24948,"ProcessName":"iisexpress","ThreadId":56,"AppDomainId":2,"AppDomainAppId":"LMW3SVC2ROOT","MachineName":"ANNA","Log4NetLevel":"INFO ","HttpRequestNumber":479,"HttpRequestId":"b12fcec0-e9eb-4c0b-b815-65cac6ecd800"}
{"@t":"2020-07-31T06:38:18.2960789Z","@mt":"Document {ContentName} (id={ContentId}) has been published.","ContentName":"Section 1","ContentId":1449,"SourceContext":"Umbraco.Core.Services.Implement.ContentService","ProcessId":24948,"ProcessName":"iisexpress","ThreadId":77,"AppDomainId":2,"AppDomainAppId":"LMW3SVC2ROOT","MachineName":"ANNA","Log4NetLevel":"INFO ","HttpRequestNumber":480,"HttpRequestId":"b3f63ac1-667f-421a-adf4-72180a93646e"}
{"@t":"2020-07-31T06:39:27.4109539Z","@mt":"Document {ContentName} (id={ContentId}) has been published.","ContentName":"Links","ContentId":2588,"SourceContext":"Umbraco.Core.Services.Implement.ContentService","ProcessId":24948,"ProcessName":"iisexpress","ThreadId":31,"AppDomainId":2,"AppDomainAppId":"LMW3SVC2ROOT","MachineName":"ANNA","Log4NetLevel":"INFO ","HttpRequestNumber":481,"HttpRequestId":"df5c94da-3895-4e00-bea1-4b5e7e353321"}
{"@t":"2020-07-31T06:43:10.4399876Z","@mt":"Document {ContentName} (id={ContentId}) has been published.","ContentName":"Links","ContentId":2636,"SourceContext":"Umbraco.Core.Services.Implement.ContentService","ProcessId":24948,"ProcessName":"iisexpress","ThreadId":65,"AppDomainId":2,"AppDomainAppId":"LMW3SVC2ROOT","MachineName":"ANNA","Log4NetLevel":"INFO ","HttpRequestNumber":482,"HttpRequestId":"5e5d4878-91f7-4284-8c5e-847b5d61c0f4"}
{"@t":"2020-07-31T06:43:23.4156764Z","@mt":"Document {ContentName} (id={ContentId}) has been published.","ContentName":"Links","ContentId":2528,"SourceContext":"Umbraco.Core.Services.Implement.ContentService","ProcessId":24948,"ProcessName":"iisexpress","ThreadId":8,"AppDomainId":2,"AppDomainAppId":"LMW3SVC2ROOT","MachineName":"ANNA","Log4NetLevel":"INFO ","HttpRequestNumber":483,"HttpRequestId":"e98b1439-cbc6-4378-915b-a4e124b87a01"}
{"@t":"2020-07-31T06:43:33.7210342Z","@mt":"Document {ContentName} (id={ContentId}) has been published.","ContentName":"Links","ContentId":2641,"SourceContext":"Umbraco.Core.Services.Implement.ContentService","ProcessId":24948,"ProcessName":"iisexpress","ThreadId":22,"AppDomainId":2,"AppDomainAppId":"LMW3SVC2ROOT","MachineName":"ANNA","Log4NetLevel":"INFO ","HttpRequestNumber":484,"HttpRequestId":"139963fd-cd2e-40ab-9933-b06d7a22b095"}
{"@t":"2020-07-31T06:43:43.3032612Z","@mt":"Document {ContentName} (id={ContentId}) has been published.","ContentName":"Links","ContentId":2646,"SourceContext":"Umbraco.Core.Services.Implement.ContentService","ProcessId":24948,"ProcessName":"iisexpress","ThreadId":68,"AppDomainId":2,"AppDomainAppId":"LMW3SVC2ROOT","MachineName":"ANNA","Log4NetLevel":"INFO ","HttpRequestNumber":485,"HttpRequestId":"5b150ae6-9cd5-44ee-b037-f237e0d1a1b9"}
{"@t":"2020-07-31T06:45:31.5784070Z","@mt":"Document {ContentName} (id={ContentId}) has been published.","ContentName":"Links","ContentId":2588,"SourceContext":"Umbraco.Core.Services.Implement.ContentService","ProcessId":24948,"ProcessName":"iisexpress","ThreadId":75,"AppDomainId":2,"AppDomainAppId":"LMW3SVC2ROOT","MachineName":"ANNA","Log4NetLevel":"INFO ","HttpRequestNumber":486,"HttpRequestId":"52903572-5ac9-4e1f-84eb-95f9f675fa01"}
{"@t":"2020-07-31T06:45:52.2124416Z","@mt":"Document {ContentName} (id={ContentId}) has been published.","ContentName":"Links","ContentId":2588,"SourceContext":"Umbraco.Core.Services.Implement.ContentService","ProcessId":24948,"ProcessName":"iisexpress","ThreadId":77,"AppDomainId":2,"AppDomainAppId":"LMW3SVC2ROOT","MachineName":"ANNA","Log4NetLevel":"INFO ","HttpRequestNumber":487,"HttpRequestId":"b138038a-b2b5-483c-8388-0cdb257966e7"}
{"@t":"2020-07-31T06:53:20.7066400Z","@mt":"Document {ContentName} (id={ContentId}) has been published.","ContentName":"Fabric (Style 1)","ContentId":1377,"SourceContext":"Umbraco.Core.Services.Implement.ContentService","ProcessId":24948,"ProcessName":"iisexpress","ThreadId":36,"AppDomainId":2,"AppDomainAppId":"LMW3SVC2ROOT","MachineName":"ANNA","Log4NetLevel":"INFO ","HttpRequestNumber":488,"HttpRequestId":"de9a773c-1aaa-4b89-ba0a-956fbe8ec1f9"}
{"@t":"2020-07-31T06:54:12.7410865Z","@mt":"Document {ContentName} (id={ContentId}) has been published.","ContentName":"Fabric (Style 1)","ContentId":1377,"SourceContext":"Umbraco.Core.Services.Implement.ContentService","ProcessId":24948,"ProcessName":"iisexpress","ThreadId":65,"AppDomainId":2,"AppDomainAppId":"LMW3SVC2ROOT","MachineName":"ANNA","Log4NetLevel":"INFO ","HttpRequestNumber":489,"HttpRequestId":"652ca29b-0357-4141-be1f-c703a0cb9282"}
{"@t":"2020-07-31T07:00:46.7711133Z","@mt":"Document {ContentName} (id={ContentId}) has been published.","ContentName":"Please Pray For","ContentId":1466,"SourceContext":"Umbraco.Core.Services.Implement.ContentService","ProcessId":24948,"ProcessName":"iisexpress","ThreadId":65,"AppDomainId":2,"AppDomainAppId":"LMW3SVC2ROOT","MachineName":"ANNA","Log4NetLevel":"INFO ","HttpRequestNumber":490,"HttpRequestId":"8d360c06-86b1-47b9-a9cf-a5bee6da7f7d"}
{"@t":"2020-07-31T07:00:47.3553880Z","@mt":"Document {ContentName} (id={ContentId}) has been published.","ContentName":"Components","ContentId":1467,"SourceContext":"Umbraco.Core.Services.Implement.ContentService","ProcessId":24948,"ProcessName":"iisexpress","ThreadId":65,"AppDomainId":2,"AppDomainAppId":"LMW3SVC2ROOT","MachineName":"ANNA","Log4NetLevel":"INFO ","HttpRequestNumber":490,"HttpRequestId":"8d360c06-86b1-47b9-a9cf-a5bee6da7f7d"}
{"@t":"2020-07-31T07:02:27.2030494Z","@mt":"Document {ContentName} (id={ContentId}) has been published.","ContentName":"Content","ContentId":2627,"SourceContext":"Umbraco.Core.Services.Implement.ContentService","ProcessId":24948,"ProcessName":"iisexpress","ThreadId":75,"AppDomainId":2,"AppDomainAppId":"LMW3SVC2ROOT","MachineName":"ANNA","Log4NetLevel":"INFO ","HttpRequestNumber":491,"HttpRequestId":"d80a96b5-4efb-4b99-aac4-f848d092edca"}
{"@t":"2020-07-31T07:44:57.2616983Z","@mt":"Scheduled health check results:","SourceContext":"Umbraco.Web.HealthCheck.HealthCheckResults","ProcessId":24948,"ProcessName":"iisexpress","ThreadId":39,"AppDomainId":2,"AppDomainAppId":"LMW3SVC2ROOT","MachineName":"ANNA","Log4NetLevel":"INFO "}
{"@t":"2020-07-31T07:44:57.2626897Z","@mt":"Checks for '{HealthCheckName}' all completed successfully.","HealthCheckName":"Folder & File Permissions","SourceContext":"Umbraco.Web.HealthCheck.HealthCheckResults","ProcessId":24948,"ProcessName":"iisexpress","ThreadId":39,"AppDomainId":2,"AppDomainAppId":"LMW3SVC2ROOT","MachineName":"ANNA","Log4NetLevel":"INFO "}
{"@t":"2020-07-31T07:44:57.2626897Z","@mt":"Result for {HealthCheckName}: {HealthCheckResult}, Message: '{HealthCheckMessage}'","HealthCheckName":"Folder & File Permissions","HealthCheckResult":"Success","HealthCheckMessage":"All folders have the correct permissions set.","SourceContext":"Umbraco.Web.HealthCheck.HealthCheckResults","ProcessId":24948,"ProcessName":"iisexpress","ThreadId":39,"AppDomainId":2,"AppDomainAppId":"LMW3SVC2ROOT","MachineName":"ANNA","Log4NetLevel":"INFO "}
{"@t":"2020-07-31T07:44:57.2626897Z","@mt":"Result for {HealthCheckName}: {HealthCheckResult}, Message: '{HealthCheckMessage}'","HealthCheckName":"Folder & File Permissions","HealthCheckResult":"Success","HealthCheckMessage":"All files have the correct permissions set.","SourceContext":"Umbraco.Web.HealthCheck.HealthCheckResults","ProcessId":24948,"ProcessName":"iisexpress","ThreadId":39,"AppDomainId":2,"AppDomainAppId":"LMW3SVC2ROOT","MachineName":"ANNA","Log4NetLevel":"INFO "}
{"@t":"2020-07-31T07:44:57.2626897Z","@mt":"Checks for '{HealthCheckName}' all completed successfully.","HealthCheckName":"SMTP Settings","SourceContext":"Umbraco.Web.HealthCheck.HealthCheckResults","ProcessId":24948,"ProcessName":"iisexpress","ThreadId":39,"AppDomainId":2,"AppDomainAppId":"LMW3SVC2ROOT","MachineName":"ANNA","Log4NetLevel":"INFO "}
{"@t":"2020-07-31T07:44:57.2626897Z","@mt":"Result for {HealthCheckName}: {HealthCheckResult}, Message: '{HealthCheckMessage}'","HealthCheckName":"SMTP Settings","HealthCheckResult":"Success","HealthCheckMessage":"SMTP settings are configured correctly and the service is operating as expected.","SourceContext":"Umbraco.Web.HealthCheck.HealthCheckResults","ProcessId":24948,"ProcessName":"iisexpress","ThreadId":39,"AppDomainId":2,"AppDomainAppId":"LMW3SVC2ROOT","MachineName":"ANNA","Log4NetLevel":"INFO "}
{"@t":"2020-07-31T07:44:57.2626897Z","@mt":"Checks for '{HealthCheckName}' completed with errors.","@l":"Warning","HealthCheckName":"Macro errors","SourceContext":"Umbraco.Web.HealthCheck.HealthCheckResults","ProcessId":24948,"ProcessName":"iisexpress","ThreadId":39,"AppDomainId":2,"AppDomainAppId":"LMW3SVC2ROOT","MachineName":"ANNA","Log4NetLevel":"WARN "}
{"@t":"2020-07-31T07:44:57.2626897Z","@mt":"Result for {HealthCheckName}: {HealthCheckResult}, Message: '{HealthCheckMessage}'","HealthCheckName":"Macro errors","HealthCheckResult":"Error","HealthCheckMessage":"MacroErrors are set to 'throw' which will prevent some or all pages in your site from loading completely if there are any errors in macros. Rectifying this will set the value to 'inline'.","SourceContext":"Umbraco.Web.HealthCheck.HealthCheckResults","ProcessId":24948,"ProcessName":"iisexpress","ThreadId":39,"AppDomainId":2,"AppDomainAppId":"LMW3SVC2ROOT","MachineName":"ANNA","Log4NetLevel":"INFO "}
{"@t":"2020-07-31T07:44:57.2626897Z","@mt":"Checks for '{HealthCheckName}' all completed successfully.","HealthCheckName":"Notification Email Settings","SourceContext":"Umbraco.Web.HealthCheck.HealthCheckResults","ProcessId":24948,"ProcessName":"iisexpress","ThreadId":39,"AppDomainId":2,"AppDomainAppId":"LMW3SVC2ROOT","MachineName":"ANNA","Log4NetLevel":"INFO "}
{"@t":"2020-07-31T07:44:57.2626897Z","@mt":"Result for {HealthCheckName}: {HealthCheckResult}, Message: '{HealthCheckMessage}'","HealthCheckName":"Notification Email Settings","HealthCheckResult":"Success","HealthCheckMessage":"Notification email has been set to <strong>ah@incyan.com</strong>.","SourceContext":"Umbraco.Web.HealthCheck.HealthCheckResults","ProcessId":24948,"ProcessName":"iisexpress","ThreadId":39,"AppDomainId":2,"AppDomainAppId":"LMW3SVC2ROOT","MachineName":"ANNA","Log4NetLevel":"INFO "}
{"@t":"2020-07-31T07:44:57.2626897Z","@mt":"Checks for '{HealthCheckName}' all completed successfully.","HealthCheckName":"Try Skip IIS Custom Errors","SourceContext":"Umbraco.Web.HealthCheck.HealthCheckResults","ProcessId":24948,"ProcessName":"iisexpress","ThreadId":39,"AppDomainId":2,"AppDomainAppId":"LMW3SVC2ROOT","MachineName":"ANNA","Log4NetLevel":"INFO "}
{"@t":"2020-07-31T07:44:57.2626897Z","@mt":"Result for {HealthCheckName}: {HealthCheckResult}, Message: '{HealthCheckMessage}'","HealthCheckName":"Try Skip IIS Custom Errors","HealthCheckResult":"Success","HealthCheckMessage":"Try Skip IIS Custom Errors is set to 'true' and you're using IIS version '10.0'.","SourceContext":"Umbraco.Web.HealthCheck.HealthCheckResults","ProcessId":24948,"ProcessName":"iisexpress","ThreadId":39,"AppDomainId":2,"AppDomainAppId":"LMW3SVC2ROOT","MachineName":"ANNA","Log4NetLevel":"INFO "}
{"@t":"2020-07-31T07:44:57.2626897Z","@mt":"Checks for '{HealthCheckName}' all completed successfully.","HealthCheckName":"Custom Errors","SourceContext":"Umbraco.Web.HealthCheck.HealthCheckResults","ProcessId":24948,"ProcessName":"iisexpress","ThreadId":39,"AppDomainId":2,"AppDomainAppId":"LMW3SVC2ROOT","MachineName":"ANNA","Log4NetLevel":"INFO "}
{"@t":"2020-07-31T07:44:57.2626897Z","@mt":"Result for {HealthCheckName}: {HealthCheckResult}, Message: '{HealthCheckMessage}'","HealthCheckName":"Custom Errors","HealthCheckResult":"Success","HealthCheckMessage":"Custom errors are set to 'On'.","SourceContext":"Umbraco.Web.HealthCheck.HealthCheckResults","ProcessId":24948,"ProcessName":"iisexpress","ThreadId":39,"AppDomainId":2,"AppDomainAppId":"LMW3SVC2ROOT","MachineName":"ANNA","Log4NetLevel":"INFO "}
{"@t":"2020-07-31T07:44:57.2626897Z","@mt":"Checks for '{HealthCheckName}' all completed successfully.","HealthCheckName":"Trace Mode","SourceContext":"Umbraco.Web.HealthCheck.HealthCheckResults","ProcessId":24948,"ProcessName":"iisexpress","ThreadId":39,"AppDomainId":2,"AppDomainAppId":"LMW3SVC2ROOT","MachineName":"ANNA","Log4NetLevel":"INFO "}
{"@t":"2020-07-31T07:44:57.2626897Z","@mt":"Result for {HealthCheckName}: {HealthCheckResult}, Message: '{HealthCheckMessage}'","HealthCheckName":"Trace Mode","HealthCheckResult":"Success","HealthCheckMessage":"Trace mode is disabled.","SourceContext":"Umbraco.Web.HealthCheck.HealthCheckResults","ProcessId":24948,"ProcessName":"iisexpress","ThreadId":39,"AppDomainId":2,"AppDomainAppId":"LMW3SVC2ROOT","MachineName":"ANNA","Log4NetLevel":"INFO "}
{"@t":"2020-07-31T07:44:57.2626897Z","@mt":"Checks for '{HealthCheckName}' completed with errors.","@l":"Warning","HealthCheckName":"Debug Compilation Mode","SourceContext":"Umbraco.Web.HealthCheck.HealthCheckResults","ProcessId":24948,"ProcessName":"iisexpress","ThreadId":39,"AppDomainId":2,"AppDomainAppId":"LMW3SVC2ROOT","MachineName":"ANNA","Log4NetLevel":"WARN "}
{"@t":"2020-07-31T07:44:57.2626897Z","@mt":"Result for {HealthCheckName}: {HealthCheckResult}, Message: '{HealthCheckMessage}'","HealthCheckName":"Debug Compilation Mode","HealthCheckResult":"Error","HealthCheckMessage":"Debug compilation mode is currently enabled. It is recommended to disable this setting before go live.","SourceContext":"Umbraco.Web.HealthCheck.HealthCheckResults","ProcessId":24948,"ProcessName":"iisexpress","ThreadId":39,"AppDomainId":2,"AppDomainAppId":"LMW3SVC2ROOT","MachineName":"ANNA","Log4NetLevel":"INFO "}
{"@t":"2020-07-31T07:44:57.2626897Z","@mt":"Checks for '{HealthCheckName}' completed with errors.","@l":"Warning","HealthCheckName":"Cross-site scripting Protection (X-XSS-Protection header)","SourceContext":"Umbraco.Web.HealthCheck.HealthCheckResults","ProcessId":24948,"ProcessName":"iisexpress","ThreadId":39,"AppDomainId":2,"AppDomainAppId":"LMW3SVC2ROOT","MachineName":"ANNA","Log4NetLevel":"WARN "}
{"@t":"2020-07-31T07:44:57.2626897Z","@mt":"Result for {HealthCheckName}: {HealthCheckResult}, Message: '{HealthCheckMessage}'","HealthCheckName":"Cross-site scripting Protection (X-XSS-Protection header)","HealthCheckResult":"Error","HealthCheckMessage":"Error pinging the URL http://localhost/umbraco - 'The remote server returned an error: (404) Not Found.'","SourceContext":"Umbraco.Web.HealthCheck.HealthCheckResults","ProcessId":24948,"ProcessName":"iisexpress","ThreadId":39,"AppDomainId":2,"AppDomainAppId":"LMW3SVC2ROOT","MachineName":"ANNA","Log4NetLevel":"INFO "}
{"@t":"2020-07-31T07:44:57.2626897Z","@mt":"Checks for '{HealthCheckName}' completed with errors.","@l":"Warning","HealthCheckName":"Cookie hijacking and protocol downgrade attacks Protection (Strict-Transport-Security Header (HSTS))","SourceContext":"Umbraco.Web.HealthCheck.HealthCheckResults","ProcessId":24948,"ProcessName":"iisexpress","ThreadId":39,"AppDomainId":2,"AppDomainAppId":"LMW3SVC2ROOT","MachineName":"ANNA","Log4NetLevel":"WARN "}
{"@t":"2020-07-31T07:44:57.2626897Z","@mt":"Result for {HealthCheckName}: {HealthCheckResult}, Message: '{HealthCheckMessage}'","HealthCheckName":"Cookie hijacking and protocol downgrade attacks Protection (Strict-Transport-Security Header (HSTS))","HealthCheckResult":"Error","HealthCheckMessage":"Error pinging the URL http://localhost/umbraco - 'The remote server returned an error: (404) Not Found.'","SourceContext":"Umbraco.Web.HealthCheck.HealthCheckResults","ProcessId":24948,"ProcessName":"iisexpress","ThreadId":39,"AppDomainId":2,"AppDomainAppId":"LMW3SVC2ROOT","MachineName":"ANNA","Log4NetLevel":"INFO "}
{"@t":"2020-07-31T07:44:57.2626897Z","@mt":"Checks for '{HealthCheckName}' completed with errors.","@l":"Warning","HealthCheckName":"Content/MIME Sniffing Protection","SourceContext":"Umbraco.Web.HealthCheck.HealthCheckResults","ProcessId":24948,"ProcessName":"iisexpress","ThreadId":39,"AppDomainId":2,"AppDomainAppId":"LMW3SVC2ROOT","MachineName":"ANNA","Log4NetLevel":"WARN "}
{"@t":"2020-07-31T07:44:57.2626897Z","@mt":"Result for {HealthCheckName}: {HealthCheckResult}, Message: '{HealthCheckMessage}'","HealthCheckName":"Content/MIME Sniffing Protection","HealthCheckResult":"Error","HealthCheckMessage":"Error pinging the URL http://localhost/umbraco - 'The remote server returned an error: (404) Not Found.'","SourceContext":"Umbraco.Web.HealthCheck.HealthCheckResults","ProcessId":24948,"ProcessName":"iisexpress","ThreadId":39,"AppDomainId":2,"AppDomainAppId":"LMW3SVC2ROOT","MachineName":"ANNA","Log4NetLevel":"INFO "}
{"@t":"2020-07-31T07:44:57.2626897Z","@mt":"Checks for '{HealthCheckName}' completed with errors.","@l":"Warning","HealthCheckName":"Excessive Headers","SourceContext":"Umbraco.Web.HealthCheck.HealthCheckResults","ProcessId":24948,"ProcessName":"iisexpress","ThreadId":39,"AppDomainId":2,"AppDomainAppId":"LMW3SVC2ROOT","MachineName":"ANNA","Log4NetLevel":"WARN "}
{"@t":"2020-07-31T07:44:57.2626897Z","@mt":"Result for {HealthCheckName}: {HealthCheckResult}, Message: '{HealthCheckMessage}'","HealthCheckName":"Excessive Headers","HealthCheckResult":"Warning","HealthCheckMessage":"[httpsCheckInvalidUrl]","SourceContext":"Umbraco.Web.HealthCheck.HealthCheckResults","ProcessId":24948,"ProcessName":"iisexpress","ThreadId":39,"AppDomainId":2,"AppDomainAppId":"LMW3SVC2ROOT","MachineName":"ANNA","Log4NetLevel":"INFO "}
{"@t":"2020-07-31T07:44:57.2626897Z","@mt":"Checks for '{HealthCheckName}' completed with errors.","@l":"Warning","HealthCheckName":"Click-Jacking Protection","SourceContext":"Umbraco.Web.HealthCheck.HealthCheckResults","ProcessId":24948,"ProcessName":"iisexpress","ThreadId":39,"AppDomainId":2,"AppDomainAppId":"LMW3SVC2ROOT","MachineName":"ANNA","Log4NetLevel":"WARN "}
{"@t":"2020-07-31T07:44:57.2626897Z","@mt":"Result for {HealthCheckName}: {HealthCheckResult}, Message: '{HealthCheckMessage}'","HealthCheckName":"Click-Jacking Protection","HealthCheckResult":"Error","HealthCheckMessage":"Error pinging the URL http://localhost/umbraco - 'The remote server returned an error: (404) Not Found.'","SourceContext":"Umbraco.Web.HealthCheck.HealthCheckResults","ProcessId":24948,"ProcessName":"iisexpress","ThreadId":39,"AppDomainId":2,"AppDomainAppId":"LMW3SVC2ROOT","MachineName":"ANNA","Log4NetLevel":"INFO "}
{"@t":"2020-07-31T07:44:57.2626897Z","@mt":"Checks for '{HealthCheckName}' completed with errors.","@l":"Warning","HealthCheckName":"HTTPS Configuration","SourceContext":"Umbraco.Web.HealthCheck.HealthCheckResults","ProcessId":24948,"ProcessName":"iisexpress","ThreadId":39,"AppDomainId":2,"AppDomainAppId":"LMW3SVC2ROOT","MachineName":"ANNA","Log4NetLevel":"WARN "}
{"@t":"2020-07-31T07:44:57.2626897Z","@mt":"Result for {HealthCheckName}: {HealthCheckResult}, Message: '{HealthCheckMessage}'","HealthCheckName":"HTTPS Configuration","HealthCheckResult":"Error","HealthCheckMessage":"You are currently not viewing the site using the HTTPS scheme.","SourceContext":"Umbraco.Web.HealthCheck.HealthCheckResults","ProcessId":24948,"ProcessName":"iisexpress","ThreadId":39,"AppDomainId":2,"AppDomainAppId":"LMW3SVC2ROOT","MachineName":"ANNA","Log4NetLevel":"INFO "}
{"@t":"2020-07-31T07:44:57.2626897Z","@mt":"Result for {HealthCheckName}: {HealthCheckResult}, Message: '{HealthCheckMessage}'","HealthCheckName":"HTTPS Configuration","HealthCheckResult":"Info","HealthCheckMessage":"The appSetting 'Umbraco.Core.UseHttps' is set to 'false' in your web.config file. Once you access this site using the HTTPS scheme, that should be set to 'true'.","SourceContext":"Umbraco.Web.HealthCheck.HealthCheckResults","ProcessId":24948,"ProcessName":"iisexpress","ThreadId":39,"AppDomainId":2,"AppDomainAppId":"LMW3SVC2ROOT","MachineName":"ANNA","Log4NetLevel":"INFO "}
{"@t":"2020-07-31T07:44:57.2626897Z","@mt":"Result for {HealthCheckName}: {HealthCheckResult}, Message: '{HealthCheckMessage}'","HealthCheckName":"HTTPS Configuration","HealthCheckResult":"Error","HealthCheckMessage":"Certificate validation error: 'The underlying connection was closed: Could not establish trust relationship for the SSL/TLS secure channel.'","SourceContext":"Umbraco.Web.HealthCheck.HealthCheckResults","ProcessId":24948,"ProcessName":"iisexpress","ThreadId":39,"AppDomainId":2,"AppDomainAppId":"LMW3SVC2ROOT","MachineName":"ANNA","Log4NetLevel":"INFO "}
{"@t":"2020-07-31T08:04:22.3342711Z","@mt":"Document {ContentName} (id={ContentId}) has been published.","ContentName":"Content","ContentId":2627,"SourceContext":"Umbraco.Core.Services.Implement.ContentService","ProcessId":24948,"ProcessName":"iisexpress","ThreadId":16,"AppDomainId":2,"AppDomainAppId":"LMW3SVC2ROOT","MachineName":"ANNA","Log4NetLevel":"INFO ","HttpRequestNumber":492,"HttpRequestId":"948f428a-9e49-4c40-bb50-104a5306d36b"}
{"@t":"2020-07-31T08:15:38.1424113Z","@mt":"Document {ContentName} (id={ContentId}) has been published.","ContentName":"Content","ContentId":2627,"SourceContext":"Umbraco.Core.Services.Implement.ContentService","ProcessId":24948,"ProcessName":"iisexpress","ThreadId":54,"AppDomainId":2,"AppDomainAppId":"LMW3SVC2ROOT","MachineName":"ANNA","Log4NetLevel":"INFO ","HttpRequestNumber":493,"HttpRequestId":"95f0693c-bc9c-44d7-a24e-a6f43f89ac5d"}
{"@t":"2020-07-31T10:25:10.8429211Z","@mt":"Document {ContentName} (id={ContentId}) has been published.","ContentName":"Home","ContentId":1301,"SourceContext":"Umbraco.Core.Services.Implement.ContentService","ProcessId":24948,"ProcessName":"iisexpress","ThreadId":75,"AppDomainId":2,"AppDomainAppId":"LMW3SVC2ROOT","MachineName":"ANNA","Log4NetLevel":"INFO ","HttpRequestNumber":494,"HttpRequestId":"ac008b25-008a-4370-842c-726d6de7eb1e"}
{"@t":"2020-07-31T10:25:11.8961440Z","@mt":"Document {ContentName} (id={ContentId}) has been published.","ContentName":"Components","ContentId":1302,"SourceContext":"Umbraco.Core.Services.Implement.ContentService","ProcessId":24948,"ProcessName":"iisexpress","ThreadId":75,"AppDomainId":2,"AppDomainAppId":"LMW3SVC2ROOT","MachineName":"ANNA","Log4NetLevel":"INFO ","HttpRequestNumber":494,"HttpRequestId":"ac008b25-008a-4370-842c-726d6de7eb1e"}
{"@t":"2020-07-31T10:27:16.6544533Z","@mt":"Document {ContentName} (id={ContentId}) has been published.","ContentName":"Home","ContentId":1301,"SourceContext":"Umbraco.Core.Services.Implement.ContentService","ProcessId":24948,"ProcessName":"iisexpress","ThreadId":31,"AppDomainId":2,"AppDomainAppId":"LMW3SVC2ROOT","MachineName":"ANNA","Log4NetLevel":"INFO ","HttpRequestNumber":495,"HttpRequestId":"e556bcd8-3807-4bbb-bbe5-6af3bfe61ebb"}
{"@t":"2020-07-31T10:27:16.9117654Z","@mt":"Document {ContentName} (id={ContentId}) has been published.","ContentName":"Components","ContentId":1302,"SourceContext":"Umbraco.Core.Services.Implement.ContentService","ProcessId":24948,"ProcessName":"iisexpress","ThreadId":31,"AppDomainId":2,"AppDomainAppId":"LMW3SVC2ROOT","MachineName":"ANNA","Log4NetLevel":"INFO ","HttpRequestNumber":495,"HttpRequestId":"e556bcd8-3807-4bbb-bbe5-6af3bfe61ebb"}
{"@t":"2020-07-31T10:27:34.6603843Z","@mt":"Document {ContentName} (id={ContentId}) has been published.","ContentName":"Header","ContentId":1303,"SourceContext":"Umbraco.Core.Services.Implement.ContentService","ProcessId":24948,"ProcessName":"iisexpress","ThreadId":75,"AppDomainId":2,"AppDomainAppId":"LMW3SVC2ROOT","MachineName":"ANNA","Log4NetLevel":"INFO ","HttpRequestNumber":496,"HttpRequestId":"209372b6-164d-422f-8dcd-2a6bc8b3d806"}
{"@t":"2020-07-31T10:34:58.8018014Z","@mt":"Document {ContentName} (id={ContentId}) has been published.","ContentName":"Home","ContentId":1301,"SourceContext":"Umbraco.Core.Services.Implement.ContentService","ProcessId":24948,"ProcessName":"iisexpress","ThreadId":39,"AppDomainId":2,"AppDomainAppId":"LMW3SVC2ROOT","MachineName":"ANNA","Log4NetLevel":"INFO ","HttpRequestNumber":497,"HttpRequestId":"6af9c02e-a2c4-44a2-b8bf-7a3d3d87d7ed"}
{"@t":"2020-07-31T10:35:00.2010874Z","@mt":"Document {ContentName} (id={ContentId}) has been published.","ContentName":"Components","ContentId":1302,"SourceContext":"Umbraco.Core.Services.Implement.ContentService","ProcessId":24948,"ProcessName":"iisexpress","ThreadId":39,"AppDomainId":2,"AppDomainAppId":"LMW3SVC2ROOT","MachineName":"ANNA","Log4NetLevel":"INFO ","HttpRequestNumber":497,"HttpRequestId":"6af9c02e-a2c4-44a2-b8bf-7a3d3d87d7ed"}
{"@t":"2020-07-31T10:37:54.1504405Z","@mt":"Document {ContentName} (id={ContentId}) has been published.","ContentName":"Header","ContentId":1303,"SourceContext":"Umbraco.Core.Services.Implement.ContentService","ProcessId":24948,"ProcessName":"iisexpress","ThreadId":75,"AppDomainId":2,"AppDomainAppId":"LMW3SVC2ROOT","MachineName":"ANNA","Log4NetLevel":"INFO ","HttpRequestNumber":498,"HttpRequestId":"64ea0fd7-7baa-46f7-b4fc-47c2fa354061"}
{"@t":"2020-07-31T11:14:27.0436076Z","@mt":"Document {ContentName} (id={ContentId}) has been published.","ContentName":"Header","ContentId":1303,"SourceContext":"Umbraco.Core.Services.Implement.ContentService","ProcessId":24948,"ProcessName":"iisexpress","ThreadId":112,"AppDomainId":2,"AppDomainAppId":"LMW3SVC2ROOT","MachineName":"ANNA","Log4NetLevel":"INFO ","HttpRequestNumber":499,"HttpRequestId":"2c811121-536d-4229-b166-44e6d6d1310f"}
{"@t":"2020-07-31T11:14:51.1746441Z","@mt":"Document {ContentName} (id={ContentId}) has been published.","ContentName":"Header","ContentId":1303,"SourceContext":"Umbraco.Core.Services.Implement.ContentService","ProcessId":24948,"ProcessName":"iisexpress","ThreadId":90,"AppDomainId":2,"AppDomainAppId":"LMW3SVC2ROOT","MachineName":"ANNA","Log4NetLevel":"INFO ","HttpRequestNumber":500,"HttpRequestId":"38b6219d-5f03-4eef-aef3-3b3f40c5f3e5"}
{"@t":"2020-07-31T12:10:17.4624144Z","@mt":"Document {ContentName} (id={ContentId}) has been published.","ContentName":"Section 1","ContentId":1449,"SourceContext":"Umbraco.Core.Services.Implement.ContentService","ProcessId":24948,"ProcessName":"iisexpress","ThreadId":73,"AppDomainId":2,"AppDomainAppId":"LMW3SVC2ROOT","MachineName":"ANNA","Log4NetLevel":"INFO ","HttpRequestNumber":501,"HttpRequestId":"473d326b-0d43-44c4-859d-fd3cf3ee5d5a"}
{"@t":"2020-07-31T12:17:56.9558420Z","@mt":"Document {ContentName} (id={ContentId}) has been published.","ContentName":"Section 1","ContentId":1449,"SourceContext":"Umbraco.Core.Services.Implement.ContentService","ProcessId":24948,"ProcessName":"iisexpress","ThreadId":82,"AppDomainId":2,"AppDomainAppId":"LMW3SVC2ROOT","MachineName":"ANNA","Log4NetLevel":"INFO ","HttpRequestNumber":502,"HttpRequestId":"a26d42a1-88ad-467f-ab43-15d3f3a19874"}
{"@t":"2020-07-31T12:20:56.1864242Z","@mt":"Document {ContentName} (id={ContentId}) has been published.","ContentName":"Section 1","ContentId":1449,"SourceContext":"Umbraco.Core.Services.Implement.ContentService","ProcessId":24948,"ProcessName":"iisexpress","ThreadId":98,"AppDomainId":2,"AppDomainAppId":"LMW3SVC2ROOT","MachineName":"ANNA","Log4NetLevel":"INFO ","HttpRequestNumber":503,"HttpRequestId":"78bcba04-064f-4948-aa30-9562593ab032"}
{"@t":"2020-07-31T12:21:09.0726284Z","@mt":"Document {ContentName} (id={ContentId}) has been published.","ContentName":"Section 1","ContentId":1449,"SourceContext":"Umbraco.Core.Services.Implement.ContentService","ProcessId":24948,"ProcessName":"iisexpress","ThreadId":98,"AppDomainId":2,"AppDomainAppId":"LMW3SVC2ROOT","MachineName":"ANNA","Log4NetLevel":"INFO ","HttpRequestNumber":504,"HttpRequestId":"67db235d-1feb-4dd6-a69c-54eb29c8ca11"}
{"@t":"2020-07-31T12:23:14.2832589Z","@mt":"Document {ContentName} (id={ContentId}) has been published.","ContentName":"Section 1","ContentId":1449,"SourceContext":"Umbraco.Core.Services.Implement.ContentService","ProcessId":24948,"ProcessName":"iisexpress","ThreadId":96,"AppDomainId":2,"AppDomainAppId":"LMW3SVC2ROOT","MachineName":"ANNA","Log4NetLevel":"INFO ","HttpRequestNumber":505,"HttpRequestId":"c149b64f-1bef-4156-a21f-5ee29956a95d"}
{"@t":"2020-07-31T12:23:39.0952777Z","@mt":"Document {ContentName} (id={ContentId}) has been published.","ContentName":"Fabric (Style 1)","ContentId":1377,"SourceContext":"Umbraco.Core.Services.Implement.ContentService","ProcessId":24948,"ProcessName":"iisexpress","ThreadId":110,"AppDomainId":2,"AppDomainAppId":"LMW3SVC2ROOT","MachineName":"ANNA","Log4NetLevel":"INFO ","HttpRequestNumber":506,"HttpRequestId":"01860e69-4988-45d9-98af-c8d09a6e7c49"}
{"@t":"2020-07-31T12:23:57.8819703Z","@mt":"Document {ContentName} (id={ContentId}) has been published.","ContentName":"Section 1","ContentId":1449,"SourceContext":"Umbraco.Core.Services.Implement.ContentService","ProcessId":24948,"ProcessName":"iisexpress","ThreadId":61,"AppDomainId":2,"AppDomainAppId":"LMW3SVC2ROOT","MachineName":"ANNA","Log4NetLevel":"INFO ","HttpRequestNumber":507,"HttpRequestId":"2f5fe09f-cf05-40e9-9552-e79a4b26b363"}
{"@t":"2020-07-31T12:24:49.6874429Z","@mt":"Document {ContentName} (id={ContentId}) has been published.","ContentName":"Section 1","ContentId":1449,"SourceContext":"Umbraco.Core.Services.Implement.ContentService","ProcessId":24948,"ProcessName":"iisexpress","ThreadId":19,"AppDomainId":2,"AppDomainAppId":"LMW3SVC2ROOT","MachineName":"ANNA","Log4NetLevel":"INFO ","HttpRequestNumber":508,"HttpRequestId":"04c0e59a-db8a-474d-92d7-030fc6c0addc"}
{"@t":"2020-07-31T12:25:54.0972995Z","@mt":"Document {ContentName} (id={ContentId}) has been published.","ContentName":"Section 1","ContentId":1449,"SourceContext":"Umbraco.Core.Services.Implement.ContentService","ProcessId":24948,"ProcessName":"iisexpress","ThreadId":40,"AppDomainId":2,"AppDomainAppId":"LMW3SVC2ROOT","MachineName":"ANNA","Log4NetLevel":"INFO ","HttpRequestNumber":509,"HttpRequestId":"cbc9f7aa-a204-48b4-8090-3a6b7f86ae30"}
{"@t":"2020-07-31T12:49:44.1853038Z","@mt":"Document {ContentName} (id={ContentId}) has been published.","ContentName":"Section 1","ContentId":1449,"SourceContext":"Umbraco.Core.Services.Implement.ContentService","ProcessId":24948,"ProcessName":"iisexpress","ThreadId":89,"AppDomainId":2,"AppDomainAppId":"LMW3SVC2ROOT","MachineName":"ANNA","Log4NetLevel":"INFO ","HttpRequestNumber":510,"HttpRequestId":"f91f909b-57fd-42f8-820f-10b7c75a4e0c"}
{"@t":"2020-07-31T12:58:20.2032540Z","@mt":"Document {ContentName} (id={ContentId}) has been published.","ContentName":"Header","ContentId":1303,"SourceContext":"Umbraco.Core.Services.Implement.ContentService","ProcessId":24948,"ProcessName":"iisexpress","ThreadId":26,"AppDomainId":2,"AppDomainAppId":"LMW3SVC2ROOT","MachineName":"ANNA","Log4NetLevel":"INFO ","HttpRequestNumber":511,"HttpRequestId":"e5f4b40f-0daf-4da4-8305-fec1fd5ee63a"}
{"@t":"2020-07-31T13:00:04.4532363Z","@mt":"Document {ContentName} (id={ContentId}) has been published.","ContentName":"Section 2","ContentId":1451,"SourceContext":"Umbraco.Core.Services.Implement.ContentService","ProcessId":24948,"ProcessName":"iisexpress","ThreadId":73,"AppDomainId":2,"AppDomainAppId":"LMW3SVC2ROOT","MachineName":"ANNA","Log4NetLevel":"INFO ","HttpRequestNumber":512,"HttpRequestId":"7bf4b99e-5c95-4cbb-99b7-1575abe1d951"}
{"@t":"2020-07-31T13:00:22.7399965Z","@mt":"Document {ContentName} (id={ContentId}) has been published.","ContentName":"Section 2","ContentId":1451,"SourceContext":"Umbraco.Core.Services.Implement.ContentService","ProcessId":24948,"ProcessName":"iisexpress","ThreadId":20,"AppDomainId":2,"AppDomainAppId":"LMW3SVC2ROOT","MachineName":"ANNA","Log4NetLevel":"INFO ","HttpRequestNumber":513,"HttpRequestId":"d789902e-8de5-453c-aac7-e7b14f3f8c43"}
{"@t":"2020-07-31T13:02:11.2210245Z","@mt":"Document {ContentName} (id={ContentId}) has been published.","ContentName":"Section 1","ContentId":1449,"SourceContext":"Umbraco.Core.Services.Implement.ContentService","ProcessId":24948,"ProcessName":"iisexpress","ThreadId":109,"AppDomainId":2,"AppDomainAppId":"LMW3SVC2ROOT","MachineName":"ANNA","Log4NetLevel":"INFO ","HttpRequestNumber":514,"HttpRequestId":"2561893a-e097-4427-b59f-1b242b671846"}
{"@t":"2020-07-31T13:03:15.8678042Z","@mt":"Document {ContentName} (id={ContentId}) has been published.","ContentName":"Header","ContentId":1303,"SourceContext":"Umbraco.Core.Services.Implement.ContentService","ProcessId":24948,"ProcessName":"iisexpress","ThreadId":20,"AppDomainId":2,"AppDomainAppId":"LMW3SVC2ROOT","MachineName":"ANNA","Log4NetLevel":"INFO ","HttpRequestNumber":515,"HttpRequestId":"f40008e9-cdc8-4afc-9b4e-1dfc6e58bc63"}
{"@t":"2020-07-31T13:05:30.3289328Z","@mt":"Document {ContentName} (id={ContentId}) has been published.","ContentName":"Section 2","ContentId":1451,"SourceContext":"Umbraco.Core.Services.Implement.ContentService","ProcessId":24948,"ProcessName":"iisexpress","ThreadId":109,"AppDomainId":2,"AppDomainAppId":"LMW3SVC2ROOT","MachineName":"ANNA","Log4NetLevel":"INFO ","HttpRequestNumber":516,"HttpRequestId":"e45e318b-d270-46a2-81d5-d539612d9a4b"}
{"@t":"2020-07-31T13:09:35.5232093Z","@mt":"Document {ContentName} (id={ContentId}) has been published.","ContentName":"Section 2","ContentId":1451,"SourceContext":"Umbraco.Core.Services.Implement.ContentService","ProcessId":24948,"ProcessName":"iisexpress","ThreadId":109,"AppDomainId":2,"AppDomainAppId":"LMW3SVC2ROOT","MachineName":"ANNA","Log4NetLevel":"INFO ","HttpRequestNumber":517,"HttpRequestId":"fd9d63bf-cdbf-4ec8-85af-8c43c140e00e"}
{"@t":"2020-07-31T13:10:22.7126486Z","@mt":"Document {ContentName} (id={ContentId}) has been published.","ContentName":"Section 2","ContentId":1451,"SourceContext":"Umbraco.Core.Services.Implement.ContentService","ProcessId":24948,"ProcessName":"iisexpress","ThreadId":105,"AppDomainId":2,"AppDomainAppId":"LMW3SVC2ROOT","MachineName":"ANNA","Log4NetLevel":"INFO ","HttpRequestNumber":518,"HttpRequestId":"a461b8fa-4677-4aad-a90d-a44b2a06dbfc"}
{"@t":"2020-07-31T13:11:48.5985188Z","@mt":"Document {ContentName} (id={ContentId}) has been published.","ContentName":"Section 2 Text","ContentId":1452,"SourceContext":"Umbraco.Core.Services.Implement.ContentService","ProcessId":24948,"ProcessName":"iisexpress","ThreadId":120,"AppDomainId":2,"AppDomainAppId":"LMW3SVC2ROOT","MachineName":"ANNA","Log4NetLevel":"INFO ","HttpRequestNumber":519,"HttpRequestId":"14c8496f-960d-475b-b544-b95432dd9dab"}
{"@t":"2020-07-31T13:12:40.3135087Z","@mt":"Document {ContentName} (id={ContentId}) has been published.","ContentName":"Section 2 Text","ContentId":1452,"SourceContext":"Umbraco.Core.Services.Implement.ContentService","ProcessId":24948,"ProcessName":"iisexpress","ThreadId":73,"AppDomainId":2,"AppDomainAppId":"LMW3SVC2ROOT","MachineName":"ANNA","Log4NetLevel":"INFO ","HttpRequestNumber":520,"HttpRequestId":"ca28c40a-e2ed-4818-a008-721b9dd00f18"}
{"@t":"2020-07-31T13:12:50.7139670Z","@mt":"Document {ContentName} (id={ContentId}) has been published.","ContentName":"Section 2 Text","ContentId":1452,"SourceContext":"Umbraco.Core.Services.Implement.ContentService","ProcessId":24948,"ProcessName":"iisexpress","ThreadId":117,"AppDomainId":2,"AppDomainAppId":"LMW3SVC2ROOT","MachineName":"ANNA","Log4NetLevel":"INFO ","HttpRequestNumber":521,"HttpRequestId":"22ab6f45-cd40-4af3-b686-208444618a86"}
{"@t":"2020-07-31T13:13:53.6086856Z","@mt":"Document {ContentName} (id={ContentId}) has been published.","ContentName":"Section 2 Text","ContentId":1452,"SourceContext":"Umbraco.Core.Services.Implement.ContentService","ProcessId":24948,"ProcessName":"iisexpress","ThreadId":105,"AppDomainId":2,"AppDomainAppId":"LMW3SVC2ROOT","MachineName":"ANNA","Log4NetLevel":"INFO ","HttpRequestNumber":522,"HttpRequestId":"9bdfb998-8e04-4019-95ea-375b57a02c19"}
{"@t":"2020-07-31T13:15:40.7660683Z","@mt":"Document {ContentName} (id={ContentId}) has been published.","ContentName":"Section 2 Text","ContentId":1452,"SourceContext":"Umbraco.Core.Services.Implement.ContentService","ProcessId":24948,"ProcessName":"iisexpress","ThreadId":73,"AppDomainId":2,"AppDomainAppId":"LMW3SVC2ROOT","MachineName":"ANNA","Log4NetLevel":"INFO ","HttpRequestNumber":523,"HttpRequestId":"9868138f-f43e-4172-aace-fcabb7de42c4"}
{"@t":"2020-07-31T13:16:06.5442148Z","@mt":"Document {ContentName} (id={ContentId}) has been published.","ContentName":"Section 2 Text","ContentId":1452,"SourceContext":"Umbraco.Core.Services.Implement.ContentService","ProcessId":24948,"ProcessName":"iisexpress","ThreadId":98,"AppDomainId":2,"AppDomainAppId":"LMW3SVC2ROOT","MachineName":"ANNA","Log4NetLevel":"INFO ","HttpRequestNumber":524,"HttpRequestId":"3e90e55b-dcb7-4cb3-8197-4c106593fb79"}
{"@t":"2020-07-31T13:19:23.5166565Z","@mt":"Document {ContentName} (id={ContentId}) has been published.","ContentName":"Section 2 Text","ContentId":1452,"SourceContext":"Umbraco.Core.Services.Implement.ContentService","ProcessId":24948,"ProcessName":"iisexpress","ThreadId":30,"AppDomainId":2,"AppDomainAppId":"LMW3SVC2ROOT","MachineName":"ANNA","Log4NetLevel":"INFO ","HttpRequestNumber":525,"HttpRequestId":"698685df-5cf9-4d4a-8698-42c8faf186c0"}
{"@t":"2020-07-31T13:20:06.0093160Z","@mt":"Document {ContentName} (id={ContentId}) has been published.","ContentName":"Section 1","ContentId":1449,"SourceContext":"Umbraco.Core.Services.Implement.ContentService","ProcessId":24948,"ProcessName":"iisexpress","ThreadId":120,"AppDomainId":2,"AppDomainAppId":"LMW3SVC2ROOT","MachineName":"ANNA","Log4NetLevel":"INFO ","HttpRequestNumber":526,"HttpRequestId":"2489df98-5ef1-4b11-a92a-84f8c44dfe74"}
{"@t":"2020-07-31T13:20:52.0112970Z","@mt":"Document {ContentName} (id={ContentId}) has been published.","ContentName":"Section 1","ContentId":1449,"SourceContext":"Umbraco.Core.Services.Implement.ContentService","ProcessId":24948,"ProcessName":"iisexpress","ThreadId":7,"AppDomainId":2,"AppDomainAppId":"LMW3SVC2ROOT","MachineName":"ANNA","Log4NetLevel":"INFO ","HttpRequestNumber":527,"HttpRequestId":"a5bc29ae-054a-4d81-8e8a-8360fe0baa3c"}
{"@t":"2020-07-31T13:21:40.0312885Z","@mt":"Document {ContentName} (id={ContentId}) has been published.","ContentName":"Section 1","ContentId":1449,"SourceContext":"Umbraco.Core.Services.Implement.ContentService","ProcessId":24948,"ProcessName":"iisexpress","ThreadId":98,"AppDomainId":2,"AppDomainAppId":"LMW3SVC2ROOT","MachineName":"ANNA","Log4NetLevel":"INFO ","HttpRequestNumber":528,"HttpRequestId":"6078877d-c719-4681-8fa2-d7e567e2f995"}
{"@t":"2020-07-31T13:22:58.8444016Z","@mt":"Document {ContentName} (id={ContentId}) has been published.","ContentName":"Section 2 Text","ContentId":1452,"SourceContext":"Umbraco.Core.Services.Implement.ContentService","ProcessId":24948,"ProcessName":"iisexpress","ThreadId":70,"AppDomainId":2,"AppDomainAppId":"LMW3SVC2ROOT","MachineName":"ANNA","Log4NetLevel":"INFO ","HttpRequestNumber":529,"HttpRequestId":"e9126b4f-a921-4a31-99db-20e1a2e6fc39"}
{"@t":"2020-07-31T13:23:23.9194919Z","@mt":"Document {ContentName} (id={ContentId}) has been published.","ContentName":"Section 2 Text","ContentId":1452,"SourceContext":"Umbraco.Core.Services.Implement.ContentService","ProcessId":24948,"ProcessName":"iisexpress","ThreadId":89,"AppDomainId":2,"AppDomainAppId":"LMW3SVC2ROOT","MachineName":"ANNA","Log4NetLevel":"INFO ","HttpRequestNumber":530,"HttpRequestId":"c4883b08-0880-44fa-a7c8-ee4f633628e1"}
{"@t":"2020-07-31T13:24:34.1977628Z","@mt":"Document {ContentName} (id={ContentId}) has been published.","ContentName":"Section 1","ContentId":1449,"SourceContext":"Umbraco.Core.Services.Implement.ContentService","ProcessId":24948,"ProcessName":"iisexpress","ThreadId":82,"AppDomainId":2,"AppDomainAppId":"LMW3SVC2ROOT","MachineName":"ANNA","Log4NetLevel":"INFO ","HttpRequestNumber":531,"HttpRequestId":"3ca3034c-535f-4b49-b845-0a1913339ad5"}
{"@t":"2020-07-31T13:32:57.0505968Z","@mt":"Document {ContentName} (id={ContentId}) has been published.","ContentName":"Section 2 Text","ContentId":1452,"SourceContext":"Umbraco.Core.Services.Implement.ContentService","ProcessId":24948,"ProcessName":"iisexpress","ThreadId":117,"AppDomainId":2,"AppDomainAppId":"LMW3SVC2ROOT","MachineName":"ANNA","Log4NetLevel":"INFO ","HttpRequestNumber":532,"HttpRequestId":"d591a61a-4ea5-4452-a849-c94972de6d0f"}
{"@t":"2020-07-31T13:33:56.5666037Z","@mt":"Document {ContentName} (id={ContentId}) has been published.","ContentName":"Section 2 Text","ContentId":1452,"SourceContext":"Umbraco.Core.Services.Implement.ContentService","ProcessId":24948,"ProcessName":"iisexpress","ThreadId":98,"AppDomainId":2,"AppDomainAppId":"LMW3SVC2ROOT","MachineName":"ANNA","Log4NetLevel":"INFO ","HttpRequestNumber":533,"HttpRequestId":"e984ed71-9df3-4f52-ae64-583ce17470f5"}
{"@t":"2020-07-31T13:34:24.9776750Z","@mt":"Document {ContentName} (id={ContentId}) has been published.","ContentName":"Section 2 Text","ContentId":1452,"SourceContext":"Umbraco.Core.Services.Implement.ContentService","ProcessId":24948,"ProcessName":"iisexpress","ThreadId":117,"AppDomainId":2,"AppDomainAppId":"LMW3SVC2ROOT","MachineName":"ANNA","Log4NetLevel":"INFO ","HttpRequestNumber":534,"HttpRequestId":"63785c51-9021-406f-a7cc-10968740e170"}
{"@t":"2020-07-31T13:39:17.3066892Z","@mt":"Document {ContentName} (id={ContentId}) has been published.","ContentName":"Prayer Events","ContentId":1453,"SourceContext":"Umbraco.Core.Services.Implement.ContentService","ProcessId":24948,"ProcessName":"iisexpress","ThreadId":20,"AppDomainId":2,"AppDomainAppId":"LMW3SVC2ROOT","MachineName":"ANNA","Log4NetLevel":"INFO ","HttpRequestNumber":535,"HttpRequestId":"a065bb93-7ac5-4b0b-97e2-b06ca81f1a22"}
{"@t":"2020-07-31T13:39:38.2527337Z","@mt":"Document {ContentName} (id={ContentId}) has been published.","ContentName":"Prayer Events","ContentId":1453,"SourceContext":"Umbraco.Core.Services.Implement.ContentService","ProcessId":24948,"ProcessName":"iisexpress","ThreadId":98,"AppDomainId":2,"AppDomainAppId":"LMW3SVC2ROOT","MachineName":"ANNA","Log4NetLevel":"INFO ","HttpRequestNumber":536,"HttpRequestId":"0072da3c-7655-4292-b54e-f835240e7cd0"}
{"@t":"2020-07-31T13:42:15.5392325Z","@mt":"Document {ContentName} (id={ContentId}) has been published.","ContentName":"Prayer Events","ContentId":1453,"SourceContext":"Umbraco.Core.Services.Implement.ContentService","ProcessId":24948,"ProcessName":"iisexpress","ThreadId":44,"AppDomainId":2,"AppDomainAppId":"LMW3SVC2ROOT","MachineName":"ANNA","Log4NetLevel":"INFO ","HttpRequestNumber":537,"HttpRequestId":"32f2dae2-d75c-48c8-a027-873448def04f"}
{"@t":"2020-07-31T13:45:14.4297479Z","@mt":"Document {ContentName} (id={ContentId}) has been published.","ContentName":"Fabric (Style 1)","ContentId":1377,"SourceContext":"Umbraco.Core.Services.Implement.ContentService","ProcessId":24948,"ProcessName":"iisexpress","ThreadId":120,"AppDomainId":2,"AppDomainAppId":"LMW3SVC2ROOT","MachineName":"ANNA","Log4NetLevel":"INFO ","HttpRequestNumber":538,"HttpRequestId":"f571262f-f9c7-4e45-a432-8eeace30b4f7"}
{"@t":"2020-07-31T13:46:55.8398320Z","@mt":"Document {ContentName} (id={ContentId}) has been published.","ContentName":"Prayer Events","ContentId":1453,"SourceContext":"Umbraco.Core.Services.Implement.ContentService","ProcessId":24948,"ProcessName":"iisexpress","ThreadId":105,"AppDomainId":2,"AppDomainAppId":"LMW3SVC2ROOT","MachineName":"ANNA","Log4NetLevel":"INFO ","HttpRequestNumber":539,"HttpRequestId":"12bc9eb6-9b61-40a2-9061-559bbfb43cbe"}
{"@t":"2020-07-31T13:52:19.7535850Z","@mt":"Document {ContentName} (id={ContentId}) has been published.","ContentName":"Prayer Events","ContentId":1453,"SourceContext":"Umbraco.Core.Services.Implement.ContentService","ProcessId":24948,"ProcessName":"iisexpress","ThreadId":117,"AppDomainId":2,"AppDomainAppId":"LMW3SVC2ROOT","MachineName":"ANNA","Log4NetLevel":"INFO ","HttpRequestNumber":540,"HttpRequestId":"db06f6cd-b9de-4a18-be47-d8e165f7cf16"}
{"@t":"2020-07-31T14:02:03.0155944Z","@mt":"Document {ContentName} (id={ContentId}) has been published.","ContentName":"Prayer Events","ContentId":1453,"SourceContext":"Umbraco.Core.Services.Implement.ContentService","ProcessId":24948,"ProcessName":"iisexpress","ThreadId":109,"AppDomainId":2,"AppDomainAppId":"LMW3SVC2ROOT","MachineName":"ANNA","Log4NetLevel":"INFO ","HttpRequestNumber":541,"HttpRequestId":"83282b0c-b005-4e2a-abcd-1626562601be"}
{"@t":"2020-07-31T14:03:48.3961436Z","@mt":"Document {ContentName} (id={ContentId}) has been published.","ContentName":"Prayer Events","ContentId":1453,"SourceContext":"Umbraco.Core.Services.Implement.ContentService","ProcessId":24948,"ProcessName":"iisexpress","ThreadId":120,"AppDomainId":2,"AppDomainAppId":"LMW3SVC2ROOT","MachineName":"ANNA","Log4NetLevel":"INFO ","HttpRequestNumber":542,"HttpRequestId":"8a8a7f3c-618a-40f7-8e16-de3a6d310ec3"}
{"@t":"2020-07-31T14:04:28.0157989Z","@mt":"Document {ContentName} (id={ContentId}) has been published.","ContentName":"Prayer Events","ContentId":1453,"SourceContext":"Umbraco.Core.Services.Implement.ContentService","ProcessId":24948,"ProcessName":"iisexpress","ThreadId":120,"AppDomainId":2,"AppDomainAppId":"LMW3SVC2ROOT","MachineName":"ANNA","Log4NetLevel":"INFO ","HttpRequestNumber":543,"HttpRequestId":"87b1a0f6-2318-4085-b7c4-3d6153f0161d"}
{"@t":"2020-07-31T14:04:37.4920835Z","@mt":"Document {ContentName} (id={ContentId}) has been published.","ContentName":"Prayer Events","ContentId":1453,"SourceContext":"Umbraco.Core.Services.Implement.ContentService","ProcessId":24948,"ProcessName":"iisexpress","ThreadId":89,"AppDomainId":2,"AppDomainAppId":"LMW3SVC2ROOT","MachineName":"ANNA","Log4NetLevel":"INFO ","HttpRequestNumber":544,"HttpRequestId":"e497592c-5dbf-47c5-ab1f-1bc39caaba76"}
{"@t":"2020-07-31T14:10:59.5233848Z","@mt":"Document {ContentName} (id={ContentId}) has been published.","ContentName":"Prayer Events","ContentId":1453,"SourceContext":"Umbraco.Core.Services.Implement.ContentService","ProcessId":24948,"ProcessName":"iisexpress","ThreadId":73,"AppDomainId":2,"AppDomainAppId":"LMW3SVC2ROOT","MachineName":"ANNA","Log4NetLevel":"INFO ","HttpRequestNumber":545,"HttpRequestId":"05eb3bea-97f9-42b2-8814-5ba5e5df4c12"}
{"@t":"2020-07-31T14:11:34.2476213Z","@mt":"Document {ContentName} (id={ContentId}) has been published.","ContentName":"Prayer Events","ContentId":1453,"SourceContext":"Umbraco.Core.Services.Implement.ContentService","ProcessId":24948,"ProcessName":"iisexpress","ThreadId":70,"AppDomainId":2,"AppDomainAppId":"LMW3SVC2ROOT","MachineName":"ANNA","Log4NetLevel":"INFO ","HttpRequestNumber":546,"HttpRequestId":"de529312-7ed5-4e9f-a99e-50f461853f34"}
{"@t":"2020-07-31T14:57:06.9378192Z","@mt":"Document {ContentName} (id={ContentId}) has been published.","ContentName":"Pray For Our...","ContentId":1456,"SourceContext":"Umbraco.Core.Services.Implement.ContentService","ProcessId":24948,"ProcessName":"iisexpress","ThreadId":98,"AppDomainId":2,"AppDomainAppId":"LMW3SVC2ROOT","MachineName":"ANNA","Log4NetLevel":"INFO ","HttpRequestNumber":547,"HttpRequestId":"3528eb2f-e4f0-4f92-902f-271aa1f66e28"}
{"@t":"2020-07-31T14:57:56.2429219Z","@mt":"Document {ContentName} (id={ContentId}) has been published.","ContentName":"Pray For Our...","ContentId":1456,"SourceContext":"Umbraco.Core.Services.Implement.ContentService","ProcessId":24948,"ProcessName":"iisexpress","ThreadId":82,"AppDomainId":2,"AppDomainAppId":"LMW3SVC2ROOT","MachineName":"ANNA","Log4NetLevel":"INFO ","HttpRequestNumber":548,"HttpRequestId":"75a45792-80aa-41af-ae27-97f629cbb719"}
{"@t":"2020-07-31T14:59:31.6723726Z","@mt":"Document {ContentName} (id={ContentId}) has been published.","ContentName":"Pray For Our...","ContentId":1456,"SourceContext":"Umbraco.Core.Services.Implement.ContentService","ProcessId":24948,"ProcessName":"iisexpress","ThreadId":20,"AppDomainId":2,"AppDomainAppId":"LMW3SVC2ROOT","MachineName":"ANNA","Log4NetLevel":"INFO ","HttpRequestNumber":549,"HttpRequestId":"90603672-1791-4b62-8347-e4b27a4d06f8"}
{"@t":"2020-07-31T15:01:49.1397465Z","@mt":"Document {ContentName} (id={ContentId}) has been published.","ContentName":"Header","ContentId":1303,"SourceContext":"Umbraco.Core.Services.Implement.ContentService","ProcessId":24948,"ProcessName":"iisexpress","ThreadId":30,"AppDomainId":2,"AppDomainAppId":"LMW3SVC2ROOT","MachineName":"ANNA","Log4NetLevel":"INFO ","HttpRequestNumber":550,"HttpRequestId":"ced7d906-f299-4fae-8f98-4c7c33486d7c"}
{"@t":"2020-07-31T15:02:08.1483297Z","@mt":"Document {ContentName} (id={ContentId}) has been published.","ContentName":"Header","ContentId":1303,"SourceContext":"Umbraco.Core.Services.Implement.ContentService","ProcessId":24948,"ProcessName":"iisexpress","ThreadId":70,"AppDomainId":2,"AppDomainAppId":"LMW3SVC2ROOT","MachineName":"ANNA","Log4NetLevel":"INFO ","HttpRequestNumber":551,"HttpRequestId":"e84d95c3-1fc9-437c-8139-3e0e35c91543"}
{"@t":"2020-07-31T15:03:02.5953374Z","@mt":"Document {ContentName} (id={ContentId}) has been published.","ContentName":"Header","ContentId":1303,"SourceContext":"Umbraco.Core.Services.Implement.ContentService","ProcessId":24948,"ProcessName":"iisexpress","ThreadId":70,"AppDomainId":2,"AppDomainAppId":"LMW3SVC2ROOT","MachineName":"ANNA","Log4NetLevel":"INFO ","HttpRequestNumber":552,"HttpRequestId":"e1ee2087-2554-41c1-8d3b-16a780a3259a"}
{"@t":"2020-07-31T15:04:47.4847018Z","@mt":"Document {ContentName} (id={ContentId}) has been published.","ContentName":"Section 2 Text","ContentId":1452,"SourceContext":"Umbraco.Core.Services.Implement.ContentService","ProcessId":24948,"ProcessName":"iisexpress","ThreadId":109,"AppDomainId":2,"AppDomainAppId":"LMW3SVC2ROOT","MachineName":"ANNA","Log4NetLevel":"INFO ","HttpRequestNumber":553,"HttpRequestId":"a204b194-4425-4343-a9b5-1dad2a2464b1"}
{"@t":"2020-07-31T15:05:18.5492860Z","@mt":"Document {ContentName} (id={ContentId}) has been published.","ContentName":"Header","ContentId":1303,"SourceContext":"Umbraco.Core.Services.Implement.ContentService","ProcessId":24948,"ProcessName":"iisexpress","ThreadId":89,"AppDomainId":2,"AppDomainAppId":"LMW3SVC2ROOT","MachineName":"ANNA","Log4NetLevel":"INFO ","HttpRequestNumber":554,"HttpRequestId":"b674cf45-ad97-44e4-9f2f-0eeab62717df"}
{"@t":"2020-07-31T15:05:35.3154613Z","@mt":"Document {ContentName} (id={ContentId}) has been published.","ContentName":"Header","ContentId":1303,"SourceContext":"Umbraco.Core.Services.Implement.ContentService","ProcessId":24948,"ProcessName":"iisexpress","ThreadId":105,"AppDomainId":2,"AppDomainAppId":"LMW3SVC2ROOT","MachineName":"ANNA","Log4NetLevel":"INFO ","HttpRequestNumber":555,"HttpRequestId":"854e76f8-b3ba-48bb-86a4-230254a0d47d"}
{"@t":"2020-07-31T15:07:24.9576849Z","@mt":"Document {ContentName} (id={ContentId}) has been published.","ContentName":"Header","ContentId":1303,"SourceContext":"Umbraco.Core.Services.Implement.ContentService","ProcessId":24948,"ProcessName":"iisexpress","ThreadId":30,"AppDomainId":2,"AppDomainAppId":"LMW3SVC2ROOT","MachineName":"ANNA","Log4NetLevel":"INFO ","HttpRequestNumber":556,"HttpRequestId":"cf64d575-be4a-4878-a27e-850e6ed0a945"}
{"@t":"2020-07-31T15:21:06.1027643Z","@mt":"Document {ContentName} (id={ContentId}) has been published.","ContentName":"Content","ContentId":2627,"SourceContext":"Umbraco.Core.Services.Implement.ContentService","ProcessId":24948,"ProcessName":"iisexpress","ThreadId":20,"AppDomainId":2,"AppDomainAppId":"LMW3SVC2ROOT","MachineName":"ANNA","Log4NetLevel":"INFO ","HttpRequestNumber":557,"HttpRequestId":"955accd5-6f44-488f-9199-77bdbc4f6aae"}
{"@t":"2020-07-31T15:22:01.2505943Z","@mt":"Document {ContentName} (id={ContentId}) has been published.","ContentName":"Content","ContentId":2627,"SourceContext":"Umbraco.Core.Services.Implement.ContentService","ProcessId":24948,"ProcessName":"iisexpress","ThreadId":120,"AppDomainId":2,"AppDomainAppId":"LMW3SVC2ROOT","MachineName":"ANNA","Log4NetLevel":"INFO ","HttpRequestNumber":558,"HttpRequestId":"d72bbc68-5acb-4dd1-b8c1-52ef430062bc"}
{"@t":"2020-07-31T15:22:45.3251864Z","@mt":"Document {ContentName} (id={ContentId}) has been published.","ContentName":"Content","ContentId":2627,"SourceContext":"Umbraco.Core.Services.Implement.ContentService","ProcessId":24948,"ProcessName":"iisexpress","ThreadId":7,"AppDomainId":2,"AppDomainAppId":"LMW3SVC2ROOT","MachineName":"ANNA","Log4NetLevel":"INFO ","HttpRequestNumber":559,"HttpRequestId":"4df913d1-d81d-46c6-b218-f2a74b569b70"}
{"@t":"2020-07-31T15:59:54.7076652Z","@mt":"Document {ContentName} (id={ContentId}) has been published.","ContentName":"Content","ContentId":2627,"SourceContext":"Umbraco.Core.Services.Implement.ContentService","ProcessId":24948,"ProcessName":"iisexpress","ThreadId":109,"AppDomainId":2,"AppDomainAppId":"LMW3SVC2ROOT","MachineName":"ANNA","Log4NetLevel":"INFO ","HttpRequestNumber":560,"HttpRequestId":"54278b50-9418-4542-8f44-0ffb2dd82378"}
{"@t":"2020-07-31T16:03:35.9135974Z","@mt":"Document {ContentName} (id={ContentId}) has been published.","ContentName":"Links","ContentId":2636,"SourceContext":"Umbraco.Core.Services.Implement.ContentService","ProcessId":24948,"ProcessName":"iisexpress","ThreadId":44,"AppDomainId":2,"AppDomainAppId":"LMW3SVC2ROOT","MachineName":"ANNA","Log4NetLevel":"INFO ","HttpRequestNumber":561,"HttpRequestId":"9596256c-3cdd-4554-974c-be99c81632aa"}
{"@t":"2020-07-31T16:04:59.4351006Z","@mt":"Document {ContentName} (id={ContentId}) has been published.","ContentName":"Links","ContentId":2636,"SourceContext":"Umbraco.Core.Services.Implement.ContentService","ProcessId":24948,"ProcessName":"iisexpress","ThreadId":122,"AppDomainId":2,"AppDomainAppId":"LMW3SVC2ROOT","MachineName":"ANNA","Log4NetLevel":"INFO ","HttpRequestNumber":562,"HttpRequestId":"1b29e6bb-9ee7-44c2-8c7a-90b807cbcfef"}
{"@t":"2020-07-31T16:14:55.0452665Z","@mt":"Document {ContentName} (id={ContentId}) has been published.","ContentName":"Links","ContentId":2528,"SourceContext":"Umbraco.Core.Services.Implement.ContentService","ProcessId":24948,"ProcessName":"iisexpress","ThreadId":26,"AppDomainId":2,"AppDomainAppId":"LMW3SVC2ROOT","MachineName":"ANNA","Log4NetLevel":"INFO ","HttpRequestNumber":563,"HttpRequestId":"f8d325e6-4b24-474f-8b94-c642f4b40c41"}
{"@t":"2020-07-31T16:15:13.3807484Z","@mt":"Document {ContentName} (id={ContentId}) has been published.","ContentName":"Links","ContentId":2641,"SourceContext":"Umbraco.Core.Services.Implement.ContentService","ProcessId":24948,"ProcessName":"iisexpress","ThreadId":120,"AppDomainId":2,"AppDomainAppId":"LMW3SVC2ROOT","MachineName":"ANNA","Log4NetLevel":"INFO ","HttpRequestNumber":564,"HttpRequestId":"133530c5-4cbf-4aad-9bb1-64462e7d2c5d"}
{"@t":"2020-07-31T16:15:32.7331984Z","@mt":"Document {ContentName} (id={ContentId}) has been published.","ContentName":"Links","ContentId":2646,"SourceContext":"Umbraco.Core.Services.Implement.ContentService","ProcessId":24948,"ProcessName":"iisexpress","ThreadId":26,"AppDomainId":2,"AppDomainAppId":"LMW3SVC2ROOT","MachineName":"ANNA","Log4NetLevel":"INFO ","HttpRequestNumber":565,"HttpRequestId":"c19d9607-487f-4963-99d0-8d47fb90a115"}
{"@t":"2020-07-31T16:16:51.5799510Z","@mt":"Document {ContentName} (id={ContentId}) has been published.","ContentName":"Title","ContentId":1507,"SourceContext":"Umbraco.Core.Services.Implement.ContentService","ProcessId":24948,"ProcessName":"iisexpress","ThreadId":30,"AppDomainId":2,"AppDomainAppId":"LMW3SVC2ROOT","MachineName":"ANNA","Log4NetLevel":"INFO ","HttpRequestNumber":566,"HttpRequestId":"94ddf3fb-5247-4ade-9f92-5e5b0ccbc423"}
{"@t":"2020-07-31T16:17:20.4624094Z","@mt":"Document {ContentName} (id={ContentId}) has been published.","ContentName":"Title","ContentId":1507,"SourceContext":"Umbraco.Core.Services.Implement.ContentService","ProcessId":24948,"ProcessName":"iisexpress","ThreadId":44,"AppDomainId":2,"AppDomainAppId":"LMW3SVC2ROOT","MachineName":"ANNA","Log4NetLevel":"INFO ","HttpRequestNumber":567,"HttpRequestId":"e55d91e8-20ec-493c-8048-0b2e4b4fe12e"}
{"@t":"2020-07-31T16:17:37.8309258Z","@mt":"Document {ContentName} (id={ContentId}) has been published.","ContentName":"Title","ContentId":1507,"SourceContext":"Umbraco.Core.Services.Implement.ContentService","ProcessId":24948,"ProcessName":"iisexpress","ThreadId":98,"AppDomainId":2,"AppDomainAppId":"LMW3SVC2ROOT","MachineName":"ANNA","Log4NetLevel":"INFO ","HttpRequestNumber":568,"HttpRequestId":"f22a33d3-2834-4343-be89-0582545e8768"}
{"@t":"2020-07-31T16:22:42.6110168Z","@mt":"Document {ContentName} (id={ContentId}) has been published.","ContentName":"Prayer Room Text","ContentId":2639,"SourceContext":"Umbraco.Core.Services.Implement.ContentService","ProcessId":24948,"ProcessName":"iisexpress","ThreadId":109,"AppDomainId":2,"AppDomainAppId":"LMW3SVC2ROOT","MachineName":"ANNA","Log4NetLevel":"INFO ","HttpRequestNumber":569,"HttpRequestId":"52a88511-ddb2-42c5-af99-c68260ebaa7e"}
{"@t":"2020-07-31T16:23:09.0646737Z","@mt":"Document {ContentName} (id={ContentId}) has been published.","ContentName":"Prayer Room Text","ContentId":2639,"SourceContext":"Umbraco.Core.Services.Implement.ContentService","ProcessId":24948,"ProcessName":"iisexpress","ThreadId":73,"AppDomainId":2,"AppDomainAppId":"LMW3SVC2ROOT","MachineName":"ANNA","Log4NetLevel":"INFO ","HttpRequestNumber":570,"HttpRequestId":"725f04ba-216e-4797-9c44-e93ca2611416"}
{"@t":"2020-07-31T16:44:11.1394659Z","@mt":"Document {ContentName} (id={ContentId}) has been published.","ContentName":"da","ContentId":0,"SourceContext":"Umbraco.Core.Services.Implement.ContentService","ProcessId":24948,"ProcessName":"iisexpress","ThreadId":89,"AppDomainId":2,"AppDomainAppId":"LMW3SVC2ROOT","MachineName":"ANNA","Log4NetLevel":"INFO ","HttpRequestNumber":571,"HttpRequestId":"836a115a-f417-4428-907e-eb92711e21e5"}
{"@t":"2020-07-31T16:44:21.3065858Z","@mt":"Document {ContentName} (id={ContentId}) has been published.","ContentName":"da","ContentId":2650,"SourceContext":"Umbraco.Core.Services.Implement.ContentService","ProcessId":24948,"ProcessName":"iisexpress","ThreadId":30,"AppDomainId":2,"AppDomainAppId":"LMW3SVC2ROOT","MachineName":"ANNA","Log4NetLevel":"INFO ","HttpRequestNumber":572,"HttpRequestId":"555b7526-15f3-43a4-a387-2faa4bac6555"}
{"@t":"2020-07-31T16:44:56.1933114Z","@mt":"Document {ContentName} (id={ContentId}) has been published.","ContentName":"Prayer Room Text","ContentId":2639,"SourceContext":"Umbraco.Core.Services.Implement.ContentService","ProcessId":24948,"ProcessName":"iisexpress","ThreadId":109,"AppDomainId":2,"AppDomainAppId":"LMW3SVC2ROOT","MachineName":"ANNA","Log4NetLevel":"INFO ","HttpRequestNumber":573,"HttpRequestId":"e4bc8e32-3dda-4910-b82e-61493ff71bd2"}
{"@t":"2020-07-31T16:45:31.0706537Z","@mt":"Document {ContentName} (id={ContentId}) has been published.","ContentName":"da","ContentId":2650,"SourceContext":"Umbraco.Core.Services.Implement.ContentService","ProcessId":24948,"ProcessName":"iisexpress","ThreadId":30,"AppDomainId":2,"AppDomainAppId":"LMW3SVC2ROOT","MachineName":"ANNA","Log4NetLevel":"INFO ","HttpRequestNumber":574,"HttpRequestId":"8304f2a8-4fd4-4e00-b959-ef15a52bda71"}
{"@t":"2020-07-31T16:54:16.6141711Z","@mt":"Document {ContentName} (id={ContentId}) has been published.","ContentName":"da","ContentId":2650,"SourceContext":"Umbraco.Core.Services.Implement.ContentService","ProcessId":24948,"ProcessName":"iisexpress","ThreadId":109,"AppDomainId":2,"AppDomainAppId":"LMW3SVC2ROOT","MachineName":"ANNA","Log4NetLevel":"INFO ","HttpRequestNumber":575,"HttpRequestId":"4ee54026-d583-4448-851b-0cac86ffd3b4"}
{"@t":"2020-07-31T16:54:47.3900079Z","@mt":"Document {ContentName} (id={ContentId}) has been published.","ContentName":"da","ContentId":2650,"SourceContext":"Umbraco.Core.Services.Implement.ContentService","ProcessId":24948,"ProcessName":"iisexpress","ThreadId":122,"AppDomainId":2,"AppDomainAppId":"LMW3SVC2ROOT","MachineName":"ANNA","Log4NetLevel":"INFO ","HttpRequestNumber":576,"HttpRequestId":"0afb721f-a5f0-4f36-8b3e-37fe0fc891bc"}
{"@t":"2020-07-31T16:55:42.4917622Z","@mt":"Document {ContentName} (id={ContentId}) has been published.","ContentName":"da","ContentId":2650,"SourceContext":"Umbraco.Core.Services.Implement.ContentService","ProcessId":24948,"ProcessName":"iisexpress","ThreadId":120,"AppDomainId":2,"AppDomainAppId":"LMW3SVC2ROOT","MachineName":"ANNA","Log4NetLevel":"INFO ","HttpRequestNumber":577,"HttpRequestId":"f88831ad-c449-4e65-8d9e-deb50e2202e3"}
