{"@t":"2020-08-03T06:23:47.2651740Z","@mt":"[{EventType}] Event Id: {EventId}, State: {State}","EventType":"Information","EventId":0,"State":"Login attempt succeeded for username ah@incyan.com from IP address ::1","SourceContext":"Umbraco.Core.Logging.OwinLogger","ProcessId":24948,"ProcessName":"iisexpress","ThreadId":118,"AppDomainId":2,"AppDomainAppId":"LMW3SVC2ROOT","MachineName":"ANNA","Log4NetLevel":"INFO ","HttpRequestNumber":578,"HttpRequestId":"c835727a-5a90-42a9-a598-abdf99d0f551"}
{"@t":"2020-08-03T06:23:47.2661708Z","@mt":"[{EventType}] Event Id: {EventId}, State: {State}","EventType":"Information","EventId":0,"State":"User: ah@incyan.com logged in from IP address ::1","SourceContext":"Umbraco.Core.Logging.OwinLogger","ProcessId":24948,"ProcessName":"iisexpress","ThreadId":118,"AppDomainId":2,"AppDomainAppId":"LMW3SVC2ROOT","MachineName":"ANNA","Log4NetLevel":"INFO ","HttpRequestNumber":578,"HttpRequestId":"c835727a-5a90-42a9-a598-abdf99d0f551"}
{"@t":"2020-08-03T06:24:01.3205892Z","@mt":"Document {ContentName} (id={ContentId}) has been published.","ContentName":"Header","ContentId":1303,"SourceContext":"Umbraco.Core.Services.Implement.ContentService","ProcessId":24948,"ProcessName":"iisexpress","ThreadId":160,"AppDomainId":2,"AppDomainAppId":"LMW3SVC2ROOT","MachineName":"ANNA","Log4NetLevel":"INFO ","HttpRequestNumber":579,"HttpRequestId":"906a48f3-a3a4-4695-88de-b0581be4b598"}
{"@t":"2020-08-03T06:57:25.1754369Z","@mt":"Document {ContentName} (id={ContentId}) has been published.","ContentName":"Content","ContentId":2627,"SourceContext":"Umbraco.Core.Services.Implement.ContentService","ProcessId":24948,"ProcessName":"iisexpress","ThreadId":110,"AppDomainId":2,"AppDomainAppId":"LMW3SVC2ROOT","MachineName":"ANNA","Log4NetLevel":"INFO ","HttpRequestNumber":580,"HttpRequestId":"3ff4e10a-8e08-423d-88d9-74ee29956897"}
{"@t":"2020-08-03T06:59:53.8665988Z","@mt":"Document {ContentName} (id={ContentId}) has been published.","ContentName":"Content","ContentId":2627,"SourceContext":"Umbraco.Core.Services.Implement.ContentService","ProcessId":24948,"ProcessName":"iisexpress","ThreadId":211,"AppDomainId":2,"AppDomainAppId":"LMW3SVC2ROOT","MachineName":"ANNA","Log4NetLevel":"INFO ","HttpRequestNumber":581,"HttpRequestId":"fea3fcb0-86a0-4d84-850b-a9f9b74528e3"}
{"@t":"2020-08-03T07:07:44.4477334Z","@mt":"Document {ContentName} (id={ContentId}) has been published.","ContentName":"Content","ContentId":2627,"SourceContext":"Umbraco.Core.Services.Implement.ContentService","ProcessId":24948,"ProcessName":"iisexpress","ThreadId":154,"AppDomainId":2,"AppDomainAppId":"LMW3SVC2ROOT","MachineName":"ANNA","Log4NetLevel":"INFO ","HttpRequestNumber":582,"HttpRequestId":"e6715371-58da-42f6-86ed-4dd5f7faebeb"}
{"@t":"2020-08-03T07:08:30.2801020Z","@mt":"Document {ContentName} (id={ContentId}) has been published.","ContentName":"Content","ContentId":2627,"SourceContext":"Umbraco.Core.Services.Implement.ContentService","ProcessId":24948,"ProcessName":"iisexpress","ThreadId":25,"AppDomainId":2,"AppDomainAppId":"LMW3SVC2ROOT","MachineName":"ANNA","Log4NetLevel":"INFO ","HttpRequestNumber":583,"HttpRequestId":"527bcd63-449d-48e6-a6a4-bc239a3f5b59"}
{"@t":"2020-08-03T07:51:32.1485271Z","@mt":"Scheduled health check results:","SourceContext":"Umbraco.Web.HealthCheck.HealthCheckResults","ProcessId":24948,"ProcessName":"iisexpress","ThreadId":180,"AppDomainId":2,"AppDomainAppId":"LMW3SVC2ROOT","MachineName":"ANNA","Log4NetLevel":"INFO "}
{"@t":"2020-08-03T07:51:32.1485271Z","@mt":"Checks for '{HealthCheckName}' all completed successfully.","HealthCheckName":"Folder & File Permissions","SourceContext":"Umbraco.Web.HealthCheck.HealthCheckResults","ProcessId":24948,"ProcessName":"iisexpress","ThreadId":180,"AppDomainId":2,"AppDomainAppId":"LMW3SVC2ROOT","MachineName":"ANNA","Log4NetLevel":"INFO "}
{"@t":"2020-08-03T07:51:32.1485271Z","@mt":"Result for {HealthCheckName}: {HealthCheckResult}, Message: '{HealthCheckMessage}'","HealthCheckName":"Folder & File Permissions","HealthCheckResult":"Success","HealthCheckMessage":"All folders have the correct permissions set.","SourceContext":"Umbraco.Web.HealthCheck.HealthCheckResults","ProcessId":24948,"ProcessName":"iisexpress","ThreadId":180,"AppDomainId":2,"AppDomainAppId":"LMW3SVC2ROOT","MachineName":"ANNA","Log4NetLevel":"INFO "}
{"@t":"2020-08-03T07:51:32.1485271Z","@mt":"Result for {HealthCheckName}: {HealthCheckResult}, Message: '{HealthCheckMessage}'","HealthCheckName":"Folder & File Permissions","HealthCheckResult":"Success","HealthCheckMessage":"All files have the correct permissions set.","SourceContext":"Umbraco.Web.HealthCheck.HealthCheckResults","ProcessId":24948,"ProcessName":"iisexpress","ThreadId":180,"AppDomainId":2,"AppDomainAppId":"LMW3SVC2ROOT","MachineName":"ANNA","Log4NetLevel":"INFO "}
{"@t":"2020-08-03T07:51:32.1485271Z","@mt":"Checks for '{HealthCheckName}' all completed successfully.","HealthCheckName":"SMTP Settings","SourceContext":"Umbraco.Web.HealthCheck.HealthCheckResults","ProcessId":24948,"ProcessName":"iisexpress","ThreadId":180,"AppDomainId":2,"AppDomainAppId":"LMW3SVC2ROOT","MachineName":"ANNA","Log4NetLevel":"INFO "}
{"@t":"2020-08-03T07:51:32.1485271Z","@mt":"Result for {HealthCheckName}: {HealthCheckResult}, Message: '{HealthCheckMessage}'","HealthCheckName":"SMTP Settings","HealthCheckResult":"Success","HealthCheckMessage":"SMTP settings are configured correctly and the service is operating as expected.","SourceContext":"Umbraco.Web.HealthCheck.HealthCheckResults","ProcessId":24948,"ProcessName":"iisexpress","ThreadId":180,"AppDomainId":2,"AppDomainAppId":"LMW3SVC2ROOT","MachineName":"ANNA","Log4NetLevel":"INFO "}
{"@t":"2020-08-03T07:51:32.1485271Z","@mt":"Checks for '{HealthCheckName}' completed with errors.","@l":"Warning","HealthCheckName":"Macro errors","SourceContext":"Umbraco.Web.HealthCheck.HealthCheckResults","ProcessId":24948,"ProcessName":"iisexpress","ThreadId":180,"AppDomainId":2,"AppDomainAppId":"LMW3SVC2ROOT","MachineName":"ANNA","Log4NetLevel":"WARN "}
{"@t":"2020-08-03T07:51:32.1485271Z","@mt":"Result for {HealthCheckName}: {HealthCheckResult}, Message: '{HealthCheckMessage}'","HealthCheckName":"Macro errors","HealthCheckResult":"Error","HealthCheckMessage":"MacroErrors are set to 'throw' which will prevent some or all pages in your site from loading completely if there are any errors in macros. Rectifying this will set the value to 'inline'.","SourceContext":"Umbraco.Web.HealthCheck.HealthCheckResults","ProcessId":24948,"ProcessName":"iisexpress","ThreadId":180,"AppDomainId":2,"AppDomainAppId":"LMW3SVC2ROOT","MachineName":"ANNA","Log4NetLevel":"INFO "}
{"@t":"2020-08-03T07:51:32.1485271Z","@mt":"Checks for '{HealthCheckName}' all completed successfully.","HealthCheckName":"Notification Email Settings","SourceContext":"Umbraco.Web.HealthCheck.HealthCheckResults","ProcessId":24948,"ProcessName":"iisexpress","ThreadId":180,"AppDomainId":2,"AppDomainAppId":"LMW3SVC2ROOT","MachineName":"ANNA","Log4NetLevel":"INFO "}
{"@t":"2020-08-03T07:51:32.1485271Z","@mt":"Result for {HealthCheckName}: {HealthCheckResult}, Message: '{HealthCheckMessage}'","HealthCheckName":"Notification Email Settings","HealthCheckResult":"Success","HealthCheckMessage":"Notification email has been set to <strong>ah@incyan.com</strong>.","SourceContext":"Umbraco.Web.HealthCheck.HealthCheckResults","ProcessId":24948,"ProcessName":"iisexpress","ThreadId":180,"AppDomainId":2,"AppDomainAppId":"LMW3SVC2ROOT","MachineName":"ANNA","Log4NetLevel":"INFO "}
{"@t":"2020-08-03T07:51:32.1485271Z","@mt":"Checks for '{HealthCheckName}' all completed successfully.","HealthCheckName":"Try Skip IIS Custom Errors","SourceContext":"Umbraco.Web.HealthCheck.HealthCheckResults","ProcessId":24948,"ProcessName":"iisexpress","ThreadId":180,"AppDomainId":2,"AppDomainAppId":"LMW3SVC2ROOT","MachineName":"ANNA","Log4NetLevel":"INFO "}
{"@t":"2020-08-03T07:51:32.1485271Z","@mt":"Result for {HealthCheckName}: {HealthCheckResult}, Message: '{HealthCheckMessage}'","HealthCheckName":"Try Skip IIS Custom Errors","HealthCheckResult":"Success","HealthCheckMessage":"Try Skip IIS Custom Errors is set to 'true' and you're using IIS version '10.0'.","SourceContext":"Umbraco.Web.HealthCheck.HealthCheckResults","ProcessId":24948,"ProcessName":"iisexpress","ThreadId":180,"AppDomainId":2,"AppDomainAppId":"LMW3SVC2ROOT","MachineName":"ANNA","Log4NetLevel":"INFO "}
{"@t":"2020-08-03T07:51:32.1485271Z","@mt":"Checks for '{HealthCheckName}' all completed successfully.","HealthCheckName":"Custom Errors","SourceContext":"Umbraco.Web.HealthCheck.HealthCheckResults","ProcessId":24948,"ProcessName":"iisexpress","ThreadId":180,"AppDomainId":2,"AppDomainAppId":"LMW3SVC2ROOT","MachineName":"ANNA","Log4NetLevel":"INFO "}
{"@t":"2020-08-03T07:51:32.1485271Z","@mt":"Result for {HealthCheckName}: {HealthCheckResult}, Message: '{HealthCheckMessage}'","HealthCheckName":"Custom Errors","HealthCheckResult":"Success","HealthCheckMessage":"Custom errors are set to 'On'.","SourceContext":"Umbraco.Web.HealthCheck.HealthCheckResults","ProcessId":24948,"ProcessName":"iisexpress","ThreadId":180,"AppDomainId":2,"AppDomainAppId":"LMW3SVC2ROOT","MachineName":"ANNA","Log4NetLevel":"INFO "}
{"@t":"2020-08-03T07:51:32.1485271Z","@mt":"Checks for '{HealthCheckName}' all completed successfully.","HealthCheckName":"Trace Mode","SourceContext":"Umbraco.Web.HealthCheck.HealthCheckResults","ProcessId":24948,"ProcessName":"iisexpress","ThreadId":180,"AppDomainId":2,"AppDomainAppId":"LMW3SVC2ROOT","MachineName":"ANNA","Log4NetLevel":"INFO "}
{"@t":"2020-08-03T07:51:32.1485271Z","@mt":"Result for {HealthCheckName}: {HealthCheckResult}, Message: '{HealthCheckMessage}'","HealthCheckName":"Trace Mode","HealthCheckResult":"Success","HealthCheckMessage":"Trace mode is disabled.","SourceContext":"Umbraco.Web.HealthCheck.HealthCheckResults","ProcessId":24948,"ProcessName":"iisexpress","ThreadId":180,"AppDomainId":2,"AppDomainAppId":"LMW3SVC2ROOT","MachineName":"ANNA","Log4NetLevel":"INFO "}
{"@t":"2020-08-03T07:51:32.1485271Z","@mt":"Checks for '{HealthCheckName}' completed with errors.","@l":"Warning","HealthCheckName":"Debug Compilation Mode","SourceContext":"Umbraco.Web.HealthCheck.HealthCheckResults","ProcessId":24948,"ProcessName":"iisexpress","ThreadId":180,"AppDomainId":2,"AppDomainAppId":"LMW3SVC2ROOT","MachineName":"ANNA","Log4NetLevel":"WARN "}
{"@t":"2020-08-03T07:51:32.1485271Z","@mt":"Result for {HealthCheckName}: {HealthCheckResult}, Message: '{HealthCheckMessage}'","HealthCheckName":"Debug Compilation Mode","HealthCheckResult":"Error","HealthCheckMessage":"Debug compilation mode is currently enabled. It is recommended to disable this setting before go live.","SourceContext":"Umbraco.Web.HealthCheck.HealthCheckResults","ProcessId":24948,"ProcessName":"iisexpress","ThreadId":180,"AppDomainId":2,"AppDomainAppId":"LMW3SVC2ROOT","MachineName":"ANNA","Log4NetLevel":"INFO "}
{"@t":"2020-08-03T07:51:32.1485271Z","@mt":"Checks for '{HealthCheckName}' completed with errors.","@l":"Warning","HealthCheckName":"Cross-site scripting Protection (X-XSS-Protection header)","SourceContext":"Umbraco.Web.HealthCheck.HealthCheckResults","ProcessId":24948,"ProcessName":"iisexpress","ThreadId":180,"AppDomainId":2,"AppDomainAppId":"LMW3SVC2ROOT","MachineName":"ANNA","Log4NetLevel":"WARN "}
{"@t":"2020-08-03T07:51:32.1485271Z","@mt":"Result for {HealthCheckName}: {HealthCheckResult}, Message: '{HealthCheckMessage}'","HealthCheckName":"Cross-site scripting Protection (X-XSS-Protection header)","HealthCheckResult":"Error","HealthCheckMessage":"Error pinging the URL http://localhost/umbraco - 'The remote server returned an error: (404) Not Found.'","SourceContext":"Umbraco.Web.HealthCheck.HealthCheckResults","ProcessId":24948,"ProcessName":"iisexpress","ThreadId":180,"AppDomainId":2,"AppDomainAppId":"LMW3SVC2ROOT","MachineName":"ANNA","Log4NetLevel":"INFO "}
{"@t":"2020-08-03T07:51:32.1485271Z","@mt":"Checks for '{HealthCheckName}' completed with errors.","@l":"Warning","HealthCheckName":"Cookie hijacking and protocol downgrade attacks Protection (Strict-Transport-Security Header (HSTS))","SourceContext":"Umbraco.Web.HealthCheck.HealthCheckResults","ProcessId":24948,"ProcessName":"iisexpress","ThreadId":180,"AppDomainId":2,"AppDomainAppId":"LMW3SVC2ROOT","MachineName":"ANNA","Log4NetLevel":"WARN "}
{"@t":"2020-08-03T07:51:32.1485271Z","@mt":"Result for {HealthCheckName}: {HealthCheckResult}, Message: '{HealthCheckMessage}'","HealthCheckName":"Cookie hijacking and protocol downgrade attacks Protection (Strict-Transport-Security Header (HSTS))","HealthCheckResult":"Error","HealthCheckMessage":"Error pinging the URL http://localhost/umbraco - 'The remote server returned an error: (404) Not Found.'","SourceContext":"Umbraco.Web.HealthCheck.HealthCheckResults","ProcessId":24948,"ProcessName":"iisexpress","ThreadId":180,"AppDomainId":2,"AppDomainAppId":"LMW3SVC2ROOT","MachineName":"ANNA","Log4NetLevel":"INFO "}
{"@t":"2020-08-03T07:51:32.1485271Z","@mt":"Checks for '{HealthCheckName}' completed with errors.","@l":"Warning","HealthCheckName":"Content/MIME Sniffing Protection","SourceContext":"Umbraco.Web.HealthCheck.HealthCheckResults","ProcessId":24948,"ProcessName":"iisexpress","ThreadId":180,"AppDomainId":2,"AppDomainAppId":"LMW3SVC2ROOT","MachineName":"ANNA","Log4NetLevel":"WARN "}
{"@t":"2020-08-03T07:51:32.1485271Z","@mt":"Result for {HealthCheckName}: {HealthCheckResult}, Message: '{HealthCheckMessage}'","HealthCheckName":"Content/MIME Sniffing Protection","HealthCheckResult":"Error","HealthCheckMessage":"Error pinging the URL http://localhost/umbraco - 'The remote server returned an error: (404) Not Found.'","SourceContext":"Umbraco.Web.HealthCheck.HealthCheckResults","ProcessId":24948,"ProcessName":"iisexpress","ThreadId":180,"AppDomainId":2,"AppDomainAppId":"LMW3SVC2ROOT","MachineName":"ANNA","Log4NetLevel":"INFO "}
{"@t":"2020-08-03T07:51:32.1485271Z","@mt":"Checks for '{HealthCheckName}' completed with errors.","@l":"Warning","HealthCheckName":"Excessive Headers","SourceContext":"Umbraco.Web.HealthCheck.HealthCheckResults","ProcessId":24948,"ProcessName":"iisexpress","ThreadId":180,"AppDomainId":2,"AppDomainAppId":"LMW3SVC2ROOT","MachineName":"ANNA","Log4NetLevel":"WARN "}
{"@t":"2020-08-03T07:51:32.1485271Z","@mt":"Result for {HealthCheckName}: {HealthCheckResult}, Message: '{HealthCheckMessage}'","HealthCheckName":"Excessive Headers","HealthCheckResult":"Warning","HealthCheckMessage":"[httpsCheckInvalidUrl]","SourceContext":"Umbraco.Web.HealthCheck.HealthCheckResults","ProcessId":24948,"ProcessName":"iisexpress","ThreadId":180,"AppDomainId":2,"AppDomainAppId":"LMW3SVC2ROOT","MachineName":"ANNA","Log4NetLevel":"INFO "}
{"@t":"2020-08-03T07:51:32.1485271Z","@mt":"Checks for '{HealthCheckName}' completed with errors.","@l":"Warning","HealthCheckName":"Click-Jacking Protection","SourceContext":"Umbraco.Web.HealthCheck.HealthCheckResults","ProcessId":24948,"ProcessName":"iisexpress","ThreadId":180,"AppDomainId":2,"AppDomainAppId":"LMW3SVC2ROOT","MachineName":"ANNA","Log4NetLevel":"WARN "}
{"@t":"2020-08-03T07:51:32.1485271Z","@mt":"Result for {HealthCheckName}: {HealthCheckResult}, Message: '{HealthCheckMessage}'","HealthCheckName":"Click-Jacking Protection","HealthCheckResult":"Error","HealthCheckMessage":"Error pinging the URL http://localhost/umbraco - 'The remote server returned an error: (404) Not Found.'","SourceContext":"Umbraco.Web.HealthCheck.HealthCheckResults","ProcessId":24948,"ProcessName":"iisexpress","ThreadId":180,"AppDomainId":2,"AppDomainAppId":"LMW3SVC2ROOT","MachineName":"ANNA","Log4NetLevel":"INFO "}
{"@t":"2020-08-03T07:51:32.1495483Z","@mt":"Checks for '{HealthCheckName}' completed with errors.","@l":"Warning","HealthCheckName":"HTTPS Configuration","SourceContext":"Umbraco.Web.HealthCheck.HealthCheckResults","ProcessId":24948,"ProcessName":"iisexpress","ThreadId":180,"AppDomainId":2,"AppDomainAppId":"LMW3SVC2ROOT","MachineName":"ANNA","Log4NetLevel":"WARN "}
{"@t":"2020-08-03T07:51:32.1495483Z","@mt":"Result for {HealthCheckName}: {HealthCheckResult}, Message: '{HealthCheckMessage}'","HealthCheckName":"HTTPS Configuration","HealthCheckResult":"Error","HealthCheckMessage":"You are currently not viewing the site using the HTTPS scheme.","SourceContext":"Umbraco.Web.HealthCheck.HealthCheckResults","ProcessId":24948,"ProcessName":"iisexpress","ThreadId":180,"AppDomainId":2,"AppDomainAppId":"LMW3SVC2ROOT","MachineName":"ANNA","Log4NetLevel":"INFO "}
{"@t":"2020-08-03T07:51:32.1495483Z","@mt":"Result for {HealthCheckName}: {HealthCheckResult}, Message: '{HealthCheckMessage}'","HealthCheckName":"HTTPS Configuration","HealthCheckResult":"Info","HealthCheckMessage":"The appSetting 'Umbraco.Core.UseHttps' is set to 'false' in your web.config file. Once you access this site using the HTTPS scheme, that should be set to 'true'.","SourceContext":"Umbraco.Web.HealthCheck.HealthCheckResults","ProcessId":24948,"ProcessName":"iisexpress","ThreadId":180,"AppDomainId":2,"AppDomainAppId":"LMW3SVC2ROOT","MachineName":"ANNA","Log4NetLevel":"INFO "}
{"@t":"2020-08-03T07:51:32.1495483Z","@mt":"Result for {HealthCheckName}: {HealthCheckResult}, Message: '{HealthCheckMessage}'","HealthCheckName":"HTTPS Configuration","HealthCheckResult":"Error","HealthCheckMessage":"Certificate validation error: 'The underlying connection was closed: Could not establish trust relationship for the SSL/TLS secure channel.'","SourceContext":"Umbraco.Web.HealthCheck.HealthCheckResults","ProcessId":24948,"ProcessName":"iisexpress","ThreadId":180,"AppDomainId":2,"AppDomainAppId":"LMW3SVC2ROOT","MachineName":"ANNA","Log4NetLevel":"INFO "}
{"@t":"2020-08-03T08:19:44.4883790Z","@mt":"Document {ContentName} (id={ContentId}) has been published.","ContentName":"Form","ContentId":2621,"SourceContext":"Umbraco.Core.Services.Implement.ContentService","ProcessId":24948,"ProcessName":"iisexpress","ThreadId":124,"AppDomainId":2,"AppDomainAppId":"LMW3SVC2ROOT","MachineName":"ANNA","Log4NetLevel":"INFO ","HttpRequestNumber":584,"HttpRequestId":"f3e591d1-2115-4728-97bf-522c2c00fc4a"}
{"@t":"2020-08-03T08:21:36.4245527Z","@mt":"Document {ContentName} (id={ContentId}) has been published.","ContentName":"Form","ContentId":2621,"SourceContext":"Umbraco.Core.Services.Implement.ContentService","ProcessId":24948,"ProcessName":"iisexpress","ThreadId":211,"AppDomainId":2,"AppDomainAppId":"LMW3SVC2ROOT","MachineName":"ANNA","Log4NetLevel":"INFO ","HttpRequestNumber":585,"HttpRequestId":"9e4712f0-d55e-4d7c-bd8c-39265f49a5eb"}
{"@t":"2020-08-03T08:22:32.1169442Z","@mt":"Document {ContentName} (id={ContentId}) has been published.","ContentName":"Form","ContentId":2621,"SourceContext":"Umbraco.Core.Services.Implement.ContentService","ProcessId":24948,"ProcessName":"iisexpress","ThreadId":196,"AppDomainId":2,"AppDomainAppId":"LMW3SVC2ROOT","MachineName":"ANNA","Log4NetLevel":"INFO ","HttpRequestNumber":586,"HttpRequestId":"7c6f8017-a250-4d8e-97c0-173f086ca515"}
{"@t":"2020-08-03T08:23:20.4414569Z","@mt":"Document {ContentName} (id={ContentId}) has been published.","ContentName":"Form","ContentId":2621,"SourceContext":"Umbraco.Core.Services.Implement.ContentService","ProcessId":24948,"ProcessName":"iisexpress","ThreadId":194,"AppDomainId":2,"AppDomainAppId":"LMW3SVC2ROOT","MachineName":"ANNA","Log4NetLevel":"INFO ","HttpRequestNumber":587,"HttpRequestId":"6f63788c-3ce8-402c-b630-576f58e5f6a4"}
{"@t":"2020-08-03T08:24:00.7307595Z","@mt":"Document {ContentName} (id={ContentId}) has been published.","ContentName":"Form","ContentId":2621,"SourceContext":"Umbraco.Core.Services.Implement.ContentService","ProcessId":24948,"ProcessName":"iisexpress","ThreadId":45,"AppDomainId":2,"AppDomainAppId":"LMW3SVC2ROOT","MachineName":"ANNA","Log4NetLevel":"INFO ","HttpRequestNumber":588,"HttpRequestId":"8e3f1d77-0998-4de3-9ef7-699928096cb2"}
{"@t":"2020-08-03T08:24:43.6896724Z","@mt":"Document {ContentName} (id={ContentId}) has been published.","ContentName":"Subscribe","ContentId":2549,"SourceContext":"Umbraco.Core.Services.Implement.ContentService","ProcessId":24948,"ProcessName":"iisexpress","ThreadId":134,"AppDomainId":2,"AppDomainAppId":"LMW3SVC2ROOT","MachineName":"ANNA","Log4NetLevel":"INFO ","HttpRequestNumber":589,"HttpRequestId":"fa8a94fe-ebfc-4d4c-96f7-fa52e9be4849"}
{"@t":"2020-08-03T08:24:46.4978390Z","@mt":"Document {ContentName} (id={ContentId}) has been published.","ContentName":"Components","ContentId":2550,"SourceContext":"Umbraco.Core.Services.Implement.ContentService","ProcessId":24948,"ProcessName":"iisexpress","ThreadId":134,"AppDomainId":2,"AppDomainAppId":"LMW3SVC2ROOT","MachineName":"ANNA","Log4NetLevel":"INFO ","HttpRequestNumber":589,"HttpRequestId":"fa8a94fe-ebfc-4d4c-96f7-fa52e9be4849"}
{"@t":"2020-08-03T08:34:33.1352331Z","@mt":"Document {ContentName} (id={ContentId}) has been published.","ContentName":"Form","ContentId":2621,"SourceContext":"Umbraco.Core.Services.Implement.ContentService","ProcessId":24948,"ProcessName":"iisexpress","ThreadId":176,"AppDomainId":2,"AppDomainAppId":"LMW3SVC2ROOT","MachineName":"ANNA","Log4NetLevel":"INFO ","HttpRequestNumber":590,"HttpRequestId":"e6ee8233-b9a3-4f45-8b61-f88014ed07bf"}
{"@t":"2020-08-03T08:49:40.8083665Z","@mt":"Document {ContentName} (id={ContentId}) has been published.","ContentName":"Form","ContentId":2621,"SourceContext":"Umbraco.Core.Services.Implement.ContentService","ProcessId":24948,"ProcessName":"iisexpress","ThreadId":180,"AppDomainId":2,"AppDomainAppId":"LMW3SVC2ROOT","MachineName":"ANNA","Log4NetLevel":"INFO ","HttpRequestNumber":591,"HttpRequestId":"f7d323b1-a1bd-49b2-b35d-4b915aacd968"}
{"@t":"2020-08-03T08:50:38.9159276Z","@mt":"Document {ContentName} (id={ContentId}) has been published.","ContentName":"Form","ContentId":2621,"SourceContext":"Umbraco.Core.Services.Implement.ContentService","ProcessId":24948,"ProcessName":"iisexpress","ThreadId":143,"AppDomainId":2,"AppDomainAppId":"LMW3SVC2ROOT","MachineName":"ANNA","Log4NetLevel":"INFO ","HttpRequestNumber":592,"HttpRequestId":"d90f8dc9-6469-49cb-8a16-313b3edf7259"}
{"@t":"2020-08-03T08:51:58.6627489Z","@mt":"Document {ContentName} (id={ContentId}) has been published.","ContentName":"Form","ContentId":2624,"SourceContext":"Umbraco.Core.Services.Implement.ContentService","ProcessId":24948,"ProcessName":"iisexpress","ThreadId":204,"AppDomainId":2,"AppDomainAppId":"LMW3SVC2ROOT","MachineName":"ANNA","Log4NetLevel":"INFO ","HttpRequestNumber":593,"HttpRequestId":"c74abd15-bbf4-4639-bf90-5863d763e1d4"}
{"@t":"2020-08-03T08:52:08.4018200Z","@mt":"Document {ContentName} (id={ContentId}) has been published.","ContentName":"Prayer Request","ContentId":2589,"SourceContext":"Umbraco.Core.Services.Implement.ContentService","ProcessId":24948,"ProcessName":"iisexpress","ThreadId":124,"AppDomainId":2,"AppDomainAppId":"LMW3SVC2ROOT","MachineName":"ANNA","Log4NetLevel":"INFO ","HttpRequestNumber":594,"HttpRequestId":"9ce84870-dd81-4a0f-9b27-5a43efca483b"}
{"@t":"2020-08-03T08:52:08.5154862Z","@mt":"Document {ContentName} (id={ContentId}) has been published.","ContentName":"Components","ContentId":2590,"SourceContext":"Umbraco.Core.Services.Implement.ContentService","ProcessId":24948,"ProcessName":"iisexpress","ThreadId":124,"AppDomainId":2,"AppDomainAppId":"LMW3SVC2ROOT","MachineName":"ANNA","Log4NetLevel":"INFO ","HttpRequestNumber":594,"HttpRequestId":"9ce84870-dd81-4a0f-9b27-5a43efca483b"}
{"@t":"2020-08-03T08:52:30.7414368Z","@mt":"Document {ContentName} (id={ContentId}) has been published.","ContentName":"Form","ContentId":2624,"SourceContext":"Umbraco.Core.Services.Implement.ContentService","ProcessId":24948,"ProcessName":"iisexpress","ThreadId":227,"AppDomainId":2,"AppDomainAppId":"LMW3SVC2ROOT","MachineName":"ANNA","Log4NetLevel":"INFO ","HttpRequestNumber":595,"HttpRequestId":"da62684d-b3a9-492a-a58f-a0e9539faf3f"}
{"@t":"2020-08-03T08:54:30.6715546Z","@mt":"Document {ContentName} (id={ContentId}) has been published.","ContentName":"Form","ContentId":2624,"SourceContext":"Umbraco.Core.Services.Implement.ContentService","ProcessId":24948,"ProcessName":"iisexpress","ThreadId":227,"AppDomainId":2,"AppDomainAppId":"LMW3SVC2ROOT","MachineName":"ANNA","Log4NetLevel":"INFO ","HttpRequestNumber":596,"HttpRequestId":"d1a20915-58b3-4434-a276-3ba4f415c110"}
{"@t":"2020-08-03T08:55:02.3447051Z","@mt":"Document {ContentName} (id={ContentId}) has been published.","ContentName":"Form","ContentId":2624,"SourceContext":"Umbraco.Core.Services.Implement.ContentService","ProcessId":24948,"ProcessName":"iisexpress","ThreadId":227,"AppDomainId":2,"AppDomainAppId":"LMW3SVC2ROOT","MachineName":"ANNA","Log4NetLevel":"INFO ","HttpRequestNumber":597,"HttpRequestId":"02a6f790-7a64-4f18-989a-7e4367521563"}
{"@t":"2020-08-03T08:55:28.7966889Z","@mt":"Document {ContentName} (id={ContentId}) has been published.","ContentName":"Thank you","ContentId":2561,"SourceContext":"Umbraco.Core.Services.Implement.ContentService","ProcessId":24948,"ProcessName":"iisexpress","ThreadId":231,"AppDomainId":2,"AppDomainAppId":"LMW3SVC2ROOT","MachineName":"ANNA","Log4NetLevel":"INFO ","HttpRequestNumber":598,"HttpRequestId":"21632e49-5e2a-4ea4-a6e5-14b2717bd2b5"}
{"@t":"2020-08-03T08:55:29.1736797Z","@mt":"Document {ContentName} (id={ContentId}) has been published.","ContentName":"Components","ContentId":2562,"SourceContext":"Umbraco.Core.Services.Implement.ContentService","ProcessId":24948,"ProcessName":"iisexpress","ThreadId":231,"AppDomainId":2,"AppDomainAppId":"LMW3SVC2ROOT","MachineName":"ANNA","Log4NetLevel":"INFO ","HttpRequestNumber":598,"HttpRequestId":"21632e49-5e2a-4ea4-a6e5-14b2717bd2b5"}
{"@t":"2020-08-03T08:56:37.2746183Z","@mt":"Document {ContentName} (id={ContentId}) has been published.","ContentName":"Text","ContentId":2609,"SourceContext":"Umbraco.Core.Services.Implement.ContentService","ProcessId":24948,"ProcessName":"iisexpress","ThreadId":129,"AppDomainId":2,"AppDomainAppId":"LMW3SVC2ROOT","MachineName":"ANNA","Log4NetLevel":"INFO ","HttpRequestNumber":599,"HttpRequestId":"91b673e2-9ff2-4281-a108-d6c26ab33a97"}
{"@t":"2020-08-03T08:57:11.9694845Z","@mt":"Document {ContentName} (id={ContentId}) has been published.","ContentName":"Text","ContentId":2609,"SourceContext":"Umbraco.Core.Services.Implement.ContentService","ProcessId":24948,"ProcessName":"iisexpress","ThreadId":45,"AppDomainId":2,"AppDomainAppId":"LMW3SVC2ROOT","MachineName":"ANNA","Log4NetLevel":"INFO ","HttpRequestNumber":600,"HttpRequestId":"e070a90e-ba8b-44ee-85d9-ad7d49f1ec14"}
{"@t":"2020-08-03T08:57:31.3832306Z","@mt":"Document {ContentName} (id={ContentId}) has been published.","ContentName":"Form","ContentId":2621,"SourceContext":"Umbraco.Core.Services.Implement.ContentService","ProcessId":24948,"ProcessName":"iisexpress","ThreadId":211,"AppDomainId":2,"AppDomainAppId":"LMW3SVC2ROOT","MachineName":"ANNA","Log4NetLevel":"INFO ","HttpRequestNumber":601,"HttpRequestId":"0cf93b6c-f6cb-40be-9890-06cc3362d936"}
{"@t":"2020-08-03T08:58:04.1714008Z","@mt":"Document {ContentName} (id={ContentId}) has been published.","ContentName":"Events","ContentId":2559,"SourceContext":"Umbraco.Core.Services.Implement.ContentService","ProcessId":24948,"ProcessName":"iisexpress","ThreadId":129,"AppDomainId":2,"AppDomainAppId":"LMW3SVC2ROOT","MachineName":"ANNA","Log4NetLevel":"INFO ","HttpRequestNumber":602,"HttpRequestId":"bdee0b3c-bc95-4af0-bc16-7611d4a7e5a5"}
{"@t":"2020-08-03T08:58:04.3529151Z","@mt":"Document {ContentName} (id={ContentId}) has been published.","ContentName":"Components","ContentId":2560,"SourceContext":"Umbraco.Core.Services.Implement.ContentService","ProcessId":24948,"ProcessName":"iisexpress","ThreadId":129,"AppDomainId":2,"AppDomainAppId":"LMW3SVC2ROOT","MachineName":"ANNA","Log4NetLevel":"INFO ","HttpRequestNumber":602,"HttpRequestId":"bdee0b3c-bc95-4af0-bc16-7611d4a7e5a5"}
{"@t":"2020-08-03T08:59:28.2045897Z","@mt":"Document {ContentName} (id={ContentId}) has been published.","ContentName":"Events","ContentId":2584,"SourceContext":"Umbraco.Core.Services.Implement.ContentService","ProcessId":24948,"ProcessName":"iisexpress","ThreadId":129,"AppDomainId":2,"AppDomainAppId":"LMW3SVC2ROOT","MachineName":"ANNA","Log4NetLevel":"INFO ","HttpRequestNumber":603,"HttpRequestId":"f3dafe3a-34c4-42b5-9482-cb472c33e6b0"}
{"@t":"2020-08-03T09:00:20.9689381Z","@mt":"Document {ContentName} (id={ContentId}) has been published.","ContentName":"Events","ContentId":2584,"SourceContext":"Umbraco.Core.Services.Implement.ContentService","ProcessId":24948,"ProcessName":"iisexpress","ThreadId":154,"AppDomainId":2,"AppDomainAppId":"LMW3SVC2ROOT","MachineName":"ANNA","Log4NetLevel":"INFO ","HttpRequestNumber":604,"HttpRequestId":"503e60e5-9099-458f-969c-1a1d851cd6e9"}
{"@t":"2020-08-03T09:01:23.5650116Z","@mt":"Document {ContentName} (id={ContentId}) has been published.","ContentName":"Form","ContentId":2622,"SourceContext":"Umbraco.Core.Services.Implement.ContentService","ProcessId":24948,"ProcessName":"iisexpress","ThreadId":196,"AppDomainId":2,"AppDomainAppId":"LMW3SVC2ROOT","MachineName":"ANNA","Log4NetLevel":"INFO ","HttpRequestNumber":605,"HttpRequestId":"5c0cb988-d0e6-44ed-8502-8594e4fcaf18"}
{"@t":"2020-08-03T09:02:25.7393631Z","@mt":"Document {ContentName} (id={ContentId}) has been published.","ContentName":"Contact us","ContentId":2576,"SourceContext":"Umbraco.Core.Services.Implement.ContentService","ProcessId":24948,"ProcessName":"iisexpress","ThreadId":143,"AppDomainId":2,"AppDomainAppId":"LMW3SVC2ROOT","MachineName":"ANNA","Log4NetLevel":"INFO ","HttpRequestNumber":606,"HttpRequestId":"14a79745-5007-4f57-a601-e56c936fa806"}
{"@t":"2020-08-03T09:02:25.9108759Z","@mt":"Document {ContentName} (id={ContentId}) has been published.","ContentName":"Components","ContentId":2577,"SourceContext":"Umbraco.Core.Services.Implement.ContentService","ProcessId":24948,"ProcessName":"iisexpress","ThreadId":143,"AppDomainId":2,"AppDomainAppId":"LMW3SVC2ROOT","MachineName":"ANNA","Log4NetLevel":"INFO ","HttpRequestNumber":606,"HttpRequestId":"14a79745-5007-4f57-a601-e56c936fa806"}
{"@t":"2020-08-03T09:03:15.6178533Z","@mt":"Document {ContentName} (id={ContentId}) has been published.","ContentName":"CHOP's","ContentId":2557,"SourceContext":"Umbraco.Core.Services.Implement.ContentService","ProcessId":24948,"ProcessName":"iisexpress","ThreadId":185,"AppDomainId":2,"AppDomainAppId":"LMW3SVC2ROOT","MachineName":"ANNA","Log4NetLevel":"INFO ","HttpRequestNumber":607,"HttpRequestId":"3a1a63c0-9d3c-4e2d-b8b0-51fd37c9dc33"}
{"@t":"2020-08-03T09:03:15.8841095Z","@mt":"Document {ContentName} (id={ContentId}) has been published.","ContentName":"Components","ContentId":2558,"SourceContext":"Umbraco.Core.Services.Implement.ContentService","ProcessId":24948,"ProcessName":"iisexpress","ThreadId":185,"AppDomainId":2,"AppDomainAppId":"LMW3SVC2ROOT","MachineName":"ANNA","Log4NetLevel":"INFO ","HttpRequestNumber":607,"HttpRequestId":"3a1a63c0-9d3c-4e2d-b8b0-51fd37c9dc33"}
{"@t":"2020-08-03T09:04:43.5461913Z","@mt":"Document {ContentName} (id={ContentId}) has been published.","ContentName":"Places","ContentId":2575,"SourceContext":"Umbraco.Core.Services.Implement.ContentService","ProcessId":24948,"ProcessName":"iisexpress","ThreadId":172,"AppDomainId":2,"AppDomainAppId":"LMW3SVC2ROOT","MachineName":"ANNA","Log4NetLevel":"INFO ","HttpRequestNumber":608,"HttpRequestId":"79149e41-62c5-4065-aa13-391c05bddb31"}
{"@t":"2020-08-03T09:04:55.8487583Z","@mt":"Document {ContentName} (id={ContentId}) has been published.","ContentName":"Paragraph","ContentId":2573,"SourceContext":"Umbraco.Core.Services.Implement.ContentService","ProcessId":24948,"ProcessName":"iisexpress","ThreadId":227,"AppDomainId":2,"AppDomainAppId":"LMW3SVC2ROOT","MachineName":"ANNA","Log4NetLevel":"INFO ","HttpRequestNumber":609,"HttpRequestId":"1f9a6f2c-2890-4940-84ec-c760b1d0d1ab"}
{"@t":"2020-08-03T09:05:45.4890758Z","@mt":"Document {ContentName} (id={ContentId}) has been published.","ContentName":"Paragraph","ContentId":2573,"SourceContext":"Umbraco.Core.Services.Implement.ContentService","ProcessId":24948,"ProcessName":"iisexpress","ThreadId":50,"AppDomainId":2,"AppDomainAppId":"LMW3SVC2ROOT","MachineName":"ANNA","Log4NetLevel":"INFO ","HttpRequestNumber":610,"HttpRequestId":"bec974c0-6e71-4f17-b3d9-4fe98048b54f"}
{"@t":"2020-08-03T09:07:17.0036533Z","@mt":"Document {ContentName} (id={ContentId}) has been published.","ContentName":"Text","ContentId":2614,"SourceContext":"Umbraco.Core.Services.Implement.ContentService","ProcessId":24948,"ProcessName":"iisexpress","ThreadId":37,"AppDomainId":2,"AppDomainAppId":"LMW3SVC2ROOT","MachineName":"ANNA","Log4NetLevel":"INFO ","HttpRequestNumber":611,"HttpRequestId":"5fb7fa01-b2e2-46d4-973e-776ed864a9db"}
{"@t":"2020-08-03T09:07:48.0630397Z","@mt":"Document {ContentName} (id={ContentId}) has been published.","ContentName":"Text","ContentId":2614,"SourceContext":"Umbraco.Core.Services.Implement.ContentService","ProcessId":24948,"ProcessName":"iisexpress","ThreadId":190,"AppDomainId":2,"AppDomainAppId":"LMW3SVC2ROOT","MachineName":"ANNA","Log4NetLevel":"INFO ","HttpRequestNumber":612,"HttpRequestId":"6b26f0d1-6ac0-4166-93a7-af9c633029df"}
{"@t":"2020-08-03T09:14:22.3742855Z","@mt":"Document {ContentName} (id={ContentId}) has been published.","ContentName":"Text","ContentId":2614,"SourceContext":"Umbraco.Core.Services.Implement.ContentService","ProcessId":24948,"ProcessName":"iisexpress","ThreadId":211,"AppDomainId":2,"AppDomainAppId":"LMW3SVC2ROOT","MachineName":"ANNA","Log4NetLevel":"INFO ","HttpRequestNumber":613,"HttpRequestId":"51eac033-b1f5-493f-9595-a4575cb760f4"}
{"@t":"2020-08-03T09:14:35.9974104Z","@mt":"Document {ContentName} (id={ContentId}) has been published.","ContentName":"Text","ContentId":2614,"SourceContext":"Umbraco.Core.Services.Implement.ContentService","ProcessId":24948,"ProcessName":"iisexpress","ThreadId":146,"AppDomainId":2,"AppDomainAppId":"LMW3SVC2ROOT","MachineName":"ANNA","Log4NetLevel":"INFO ","HttpRequestNumber":614,"HttpRequestId":"03fb52bb-7b57-4221-94f5-73c2573d678e"}
{"@t":"2020-08-03T09:14:49.8657665Z","@mt":"Document {ContentName} (id={ContentId}) has been published.","ContentName":"Text","ContentId":2614,"SourceContext":"Umbraco.Core.Services.Implement.ContentService","ProcessId":24948,"ProcessName":"iisexpress","ThreadId":211,"AppDomainId":2,"AppDomainAppId":"LMW3SVC2ROOT","MachineName":"ANNA","Log4NetLevel":"INFO ","HttpRequestNumber":615,"HttpRequestId":"a8be8350-65cf-4611-b0dc-1d6e907a1c2b"}
{"@t":"2020-08-03T09:15:40.7343279Z","@mt":"Document {ContentName} (id={ContentId}) has been published.","ContentName":"Text","ContentId":2614,"SourceContext":"Umbraco.Core.Services.Implement.ContentService","ProcessId":24948,"ProcessName":"iisexpress","ThreadId":146,"AppDomainId":2,"AppDomainAppId":"LMW3SVC2ROOT","MachineName":"ANNA","Log4NetLevel":"INFO ","HttpRequestNumber":616,"HttpRequestId":"b066d05c-f8be-414a-af07-3c9840b60c11"}
{"@t":"2020-08-03T09:18:26.6470769Z","@mt":"Document {ContentName} (id={ContentId}) has been published.","ContentName":"Text","ContentId":2614,"SourceContext":"Umbraco.Core.Services.Implement.ContentService","ProcessId":24948,"ProcessName":"iisexpress","ThreadId":138,"AppDomainId":2,"AppDomainAppId":"LMW3SVC2ROOT","MachineName":"ANNA","Log4NetLevel":"INFO ","HttpRequestNumber":617,"HttpRequestId":"9f294801-54fb-4600-8fdb-e9d03a69a880"}
{"@t":"2020-08-03T09:18:36.2099804Z","@mt":"Document {ContentName} (id={ContentId}) has been published.","ContentName":"Error404","ContentId":2610,"SourceContext":"Umbraco.Core.Services.Implement.ContentService","ProcessId":24948,"ProcessName":"iisexpress","ThreadId":185,"AppDomainId":2,"AppDomainAppId":"LMW3SVC2ROOT","MachineName":"ANNA","Log4NetLevel":"INFO ","HttpRequestNumber":618,"HttpRequestId":"f6834f84-2b3e-4947-92b2-e718f2483101"}
{"@t":"2020-08-03T09:18:36.3196865Z","@mt":"Document {ContentName} (id={ContentId}) has been published.","ContentName":"Components","ContentId":2611,"SourceContext":"Umbraco.Core.Services.Implement.ContentService","ProcessId":24948,"ProcessName":"iisexpress","ThreadId":185,"AppDomainId":2,"AppDomainAppId":"LMW3SVC2ROOT","MachineName":"ANNA","Log4NetLevel":"INFO ","HttpRequestNumber":618,"HttpRequestId":"f6834f84-2b3e-4947-92b2-e718f2483101"}
{"@t":"2020-08-03T09:18:55.5551741Z","@mt":"Document {ContentName} (id={ContentId}) has been published.","ContentName":"Error505","ContentId":2615,"SourceContext":"Umbraco.Core.Services.Implement.ContentService","ProcessId":24948,"ProcessName":"iisexpress","ThreadId":146,"AppDomainId":2,"AppDomainAppId":"LMW3SVC2ROOT","MachineName":"ANNA","Log4NetLevel":"INFO ","HttpRequestNumber":619,"HttpRequestId":"b45345a7-1c71-4fa9-a6f9-8588f78a4a0c"}
{"@t":"2020-08-03T09:18:56.0362467Z","@mt":"Document {ContentName} (id={ContentId}) has been published.","ContentName":"Components","ContentId":2616,"SourceContext":"Umbraco.Core.Services.Implement.ContentService","ProcessId":24948,"ProcessName":"iisexpress","ThreadId":146,"AppDomainId":2,"AppDomainAppId":"LMW3SVC2ROOT","MachineName":"ANNA","Log4NetLevel":"INFO ","HttpRequestNumber":619,"HttpRequestId":"b45345a7-1c71-4fa9-a6f9-8588f78a4a0c"}
{"@t":"2020-08-03T09:19:22.1826605Z","@mt":"Document {ContentName} (id={ContentId}) has been published.","ContentName":"Text","ContentId":2618,"SourceContext":"Umbraco.Core.Services.Implement.ContentService","ProcessId":24948,"ProcessName":"iisexpress","ThreadId":204,"AppDomainId":2,"AppDomainAppId":"LMW3SVC2ROOT","MachineName":"ANNA","Log4NetLevel":"INFO ","HttpRequestNumber":620,"HttpRequestId":"ba217d95-397a-416f-83d9-e737ec87408b"}
{"@t":"2020-08-03T09:19:34.7947639Z","@mt":"Document {ContentName} (id={ContentId}) has been published.","ContentName":"Text","ContentId":2618,"SourceContext":"Umbraco.Core.Services.Implement.ContentService","ProcessId":24948,"ProcessName":"iisexpress","ThreadId":194,"AppDomainId":2,"AppDomainAppId":"LMW3SVC2ROOT","MachineName":"ANNA","Log4NetLevel":"INFO ","HttpRequestNumber":621,"HttpRequestId":"862442f6-e5ee-4084-9ff8-9a12716bdb76"}
{"@t":"2020-08-03T09:21:16.2394817Z","@mt":"Document {ContentName} (id={ContentId}) has been published.","ContentName":"Prayer Room btn","ContentId":2650,"SourceContext":"Umbraco.Core.Services.Implement.ContentService","ProcessId":24948,"ProcessName":"iisexpress","ThreadId":186,"AppDomainId":2,"AppDomainAppId":"LMW3SVC2ROOT","MachineName":"ANNA","Log4NetLevel":"INFO ","HttpRequestNumber":622,"HttpRequestId":"6f957867-5796-4f61-b861-b43f11c7a1a5"}
{"@t":"2020-08-03T09:21:53.0258380Z","@mt":"Document {ContentName} (id={ContentId}) has been published.","ContentName":"Please Pray For","ContentId":1466,"SourceContext":"Umbraco.Core.Services.Implement.ContentService","ProcessId":24948,"ProcessName":"iisexpress","ThreadId":138,"AppDomainId":2,"AppDomainAppId":"LMW3SVC2ROOT","MachineName":"ANNA","Log4NetLevel":"INFO ","HttpRequestNumber":623,"HttpRequestId":"839060ef-ec3b-4e7b-9aeb-7259c6031e43"}
{"@t":"2020-08-03T09:21:53.1814221Z","@mt":"Document {ContentName} (id={ContentId}) has been published.","ContentName":"Components","ContentId":1467,"SourceContext":"Umbraco.Core.Services.Implement.ContentService","ProcessId":24948,"ProcessName":"iisexpress","ThreadId":138,"AppDomainId":2,"AppDomainAppId":"LMW3SVC2ROOT","MachineName":"ANNA","Log4NetLevel":"INFO ","HttpRequestNumber":623,"HttpRequestId":"839060ef-ec3b-4e7b-9aeb-7259c6031e43"}
{"@t":"2020-08-03T09:21:58.5888867Z","@mt":"Document {ContentName} (id={ContentId}) has been published.","ContentName":"Prayer Room btn","ContentId":2651,"SourceContext":"Umbraco.Core.Services.Implement.ContentService","ProcessId":24948,"ProcessName":"iisexpress","ThreadId":200,"AppDomainId":2,"AppDomainAppId":"LMW3SVC2ROOT","MachineName":"ANNA","Log4NetLevel":"INFO ","HttpRequestNumber":624,"HttpRequestId":"afda242c-8004-43f8-bad7-a7b3f5063c6f"}
{"@t":"2020-08-03T09:22:02.0058187Z","@mt":"Document {ContentName} (id={ContentId}) has been published.","ContentName":"Prayer Room btn","ContentId":2652,"SourceContext":"Umbraco.Core.Services.Implement.ContentService","ProcessId":24948,"ProcessName":"iisexpress","ThreadId":219,"AppDomainId":2,"AppDomainAppId":"LMW3SVC2ROOT","MachineName":"ANNA","Log4NetLevel":"INFO ","HttpRequestNumber":625,"HttpRequestId":"23c5a9c0-35cb-4663-adc1-a925f5820afe"}
{"@t":"2020-08-03T09:22:04.8784828Z","@mt":"Document {ContentName} (id={ContentId}) has been published.","ContentName":"Prayer Room btn","ContentId":2653,"SourceContext":"Umbraco.Core.Services.Implement.ContentService","ProcessId":24948,"ProcessName":"iisexpress","ThreadId":185,"AppDomainId":2,"AppDomainAppId":"LMW3SVC2ROOT","MachineName":"ANNA","Log4NetLevel":"INFO ","HttpRequestNumber":626,"HttpRequestId":"0e9fca12-0344-484c-9b8b-dd63d13a325d"}
